{
	"courses": [
		{
			"code": "SGRSPRX",
			"level": "Kommunal vuxenutbildning som anpassad utbildning på grundläggande nivå",
			"earliestApplication": "2023-04-01",
			"latestApplication": "2023-09-17",
			"studyLocation": "Sundsvall",
			"providerUrl": "http://sundsvall.se/vuxenutbildning",
			"url": "https://sundsvall.alvis.se/hittakurser/kurs/59571",
			"provider": "Sundsvalls Kommun",
			"credits": 400,
			"scope": 100,
			"name": "Digitala verktyg i språk och kommunikation",
			"information": "<![CDATA[ <p>Komvux som anpassad&nbsp;utbildning är för dig som har en intellektuell funktionsnedsättning eller förvärvad hjärnskada.<\/p><p>Kursen är för dig som vill:<\/p><ul>\t<li>\t<p>använda tekniska verktyg som dator, smartboard och surfplatta<\/p>\t<\/li>\t<li>\t<p>söka information på internet<\/p>\t<\/li>\t<li>\t<p>läsa och skriva med hjälp av digitala verktyg<\/p>\t<\/li><\/ul><p>Studietakt: individuell<\/p><p>Nivå: grundläggande<\/p><p>Antagning: löpande i mån av plats<\/p><div>&nbsp;<\/div> ]]>",
			"id": 1358,
			"category": "Data och IT",
			"subcategory": "Datoranvändning",
			"subjectCode": "SGRSPRX"
		},
		{
			"code": "SGRSPRX",
			"level": "Kommunal vuxenutbildning som anpassad utbildning på grundläggande nivå",
			"earliestApplication": "2023-04-01",
			"latestApplication": "2023-09-17",
			"studyLocation": "Sundsvall",
			"providerUrl": "http://sundsvall.se/vuxenutbildning",
			"url": "https://sundsvall.alvis.se/hittakurser/kurs/59571",
			"provider": "Sundsvalls Kommun",
			"credits": 400,
			"scope": 100,
			"name": "Digitala verktyg i språk och kommunikation",
			"information": "<![CDATA[ <p>Komvux som anpassad&nbsp;utbildning är för dig som har en intellektuell funktionsnedsättning eller förvärvad hjärnskada.<\/p><p>Kursen är för dig som vill:<\/p><ul>\t<li>\t<p>använda tekniska verktyg som dator, smartboard och surfplatta<\/p>\t<\/li>\t<li>\t<p>söka information på internet<\/p>\t<\/li>\t<li>\t<p>läsa och skriva med hjälp av digitala verktyg<\/p>\t<\/li><\/ul><p>Studietakt: individuell<\/p><p>Nivå: grundläggande<\/p><p>Antagning: löpande i mån av plats<\/p><div>&nbsp;<\/div> ]]>",
			"id": 1358,
			"category": "Data och IT",
			"subcategory": "Datoranvändning",
			"subjectCode": "SGRSPRX"
		},
		{
			"code": "SGRSPRX",
			"level": "Kommunal vuxenutbildning som anpassad utbildning på grundläggande nivå",
			"earliestApplication": "2023-04-01",
			"latestApplication": "2023-09-17",
			"studyLocation": "Sundsvall",
			"providerUrl": "http://sundsvall.se/vuxenutbildning",
			"url": "https://sundsvall.alvis.se/hittakurser/kurs/59571",
			"provider": "Sundsvalls Kommun",
			"credits": 400,
			"scope": 100,
			"name": "Digitala verktyg i språk och kommunikation",
			"information": "<![CDATA[ <p>Komvux som anpassad&nbsp;utbildning är för dig som har en intellektuell funktionsnedsättning eller förvärvad hjärnskada.<\/p><p>Kursen är för dig som vill:<\/p><ul>\t<li>\t<p>använda tekniska verktyg som dator, smartboard och surfplatta<\/p>\t<\/li>\t<li>\t<p>söka information på internet<\/p>\t<\/li>\t<li>\t<p>läsa och skriva med hjälp av digitala verktyg<\/p>\t<\/li><\/ul><p>Studietakt: individuell<\/p><p>Nivå: grundläggande<\/p><p>Antagning: löpande i mån av plats<\/p><div>&nbsp;<\/div> ]]>",
			"id": 1358,
			"category": "Data och IT",
			"subcategory": "Datoranvändning",
			"subjectCode": "SGRSPRX"
		}
	],
	"_meta": {
		"totalRecords": 8,
		"limit": 3,
		"count": 3,
		"totalPages": 3,
		"page": 0
	}
}
