{
	"courses": [
		{
			"code": "VFXABR",
			"level": "gymnasial vuxenutbildning",
			"start": "2023-10-09",
			"earliestApplication": "2023-03-08",
			"latestApplication": "2023-09-10",
			"studyLocation": "Härnösand",
			"providerUrl": "http://sundsvall.se/vuxenutbildning",
			"url": "https://sundsvall.alvis.se/hittakurser/kurs/10927",
			"provider": "Sundsvalls Kommun",
			"credits": 1400,
			"scope": 100,
			"name": "VVS lärling",
			"end": "2024-09-20",
			"information": "<![CDATA[ <p>Är du en självständig, teknisk problemlösare? Då kanske VVS-montör är ett yrke för dig!<br />&nbsp;<\/p> ]]>",
			"id": 1459,
			"category": "Bygg och anläggning",
			"subcategory": "Övrigt inom bygg och anläggning",
			"subjectCode": "VFXABR"
		},
		{
			"code": "VFXABR",
			"level": "gymnasial vuxenutbildning",
			"start": "2023-10-09",
			"earliestApplication": "2023-03-08",
			"latestApplication": "2023-09-10",
			"studyLocation": "Härnösand",
			"providerUrl": "http://sundsvall.se/vuxenutbildning",
			"url": "https://sundsvall.alvis.se/hittakurser/kurs/10927",
			"provider": "Sundsvalls Kommun",
			"credits": 1400,
			"scope": 100,
			"name": "VVS lärling",
			"end": "2024-09-20",
			"information": "<![CDATA[ <p>Är du en självständig, teknisk problemlösare? Då kanske VVS-montör är ett yrke för dig!<br />&nbsp;<\/p> ]]>",
			"id": 1459,
			"category": "Bygg och anläggning",
			"subcategory": "Övrigt inom bygg och anläggning",
			"subjectCode": "VFXABR"
		},
		{
			"code": "FTXADR",
			"level": "gymnasial vuxenutbildning",
			"start": "2023-10-16",
			"earliestApplication": "2023-03-08",
			"latestApplication": "2023-09-10",
			"studyLocation": "Sundsvall",
			"providerUrl": "http://sundsvall.se/vuxenutbildning",
			"url": "https://sundsvall.alvis.se/hittakurser/kurs/70366",
			"provider": "Sundsvalls Kommun",
			"credits": 1400,
			"scope": 100,
			"name": "Personbilsmekaniker",
			"end": "2024-10-11",
			"information": "<![CDATA[ <p>För dig som gillar teknik och datorer och vill bli proffs på elektronik och felsökning på fordon. Personbilsmekaniker gör felsökningar och utför service och reparationer på personbilar eller motorcyklar.<\/p> ]]>",
			"id": 1470,
			"category": "Tillverkning och underhåll",
			"subcategory": "Fordon",
			"subjectCode": "FTXADR"
		},
		{
			"code": "INXADR",
			"level": "gymnasial vuxenutbildning",
			"start": "2023-10-16",
			"earliestApplication": "2023-03-13",
			"latestApplication": "2023-09-10",
			"studyLocation": "Sundsvall",
			"providerUrl": "http://sundsvall.se/vuxenutbildning",
			"url": "https://sundsvall.alvis.se/hittakurser/kurs/5437",
			"provider": "Sundsvalls Kommun",
			"credits": 1500,
			"scope": 100,
			"name": "Industriteknik plåt och svets",
			"end": "2024-12-13",
			"information": "<![CDATA[ Vill du vässa dina möjligheter till arbete inom industrin? ]]>",
			"id": 1471,
			"category": "Tillverkning och underhåll",
			"subcategory": "Svetsteknik",
			"subjectCode": "INXADR"
		},
		{
			"code": "Okänd",
			"provider": "Sundsvalls Kommun",
			"scope": 100,
			"name": "Okänd",
			"start": "2023-10-09",
			"earliestApplication": "2023-03-13",
			"end": "2024-10-04",
			"latestApplication": "2023-09-10",
			"id": 1472,
			"studyLocation": "Härnösand",
			"providerUrl": "http://sundsvall.se/vuxenutbildning"
		}
	],
	"_meta": {
		"totalRecords": 10,
		"limit": 5,
		"count": 5,
		"totalPages": 2,
		"page": 0
	}
}
