{
	"courses": [
		{
			"id": 6001,
			"code": "ADMADM01",
			"name": "Administration 1",
			"provider": "Sundsvalls Kommun",
			"providerUrl": "http://sundsvall.se/vuxenutbildning",
			"level": "gymnasial vuxenutbildning",
			"url": "https://sundsvall.alvis.se/hittakurser/kurs/38769",
			"credits": 100.0,
			"scope": 100.0,
			"studyLocation": "Sundsvall",
			"subjectCode": "ADMADM01",
			"start": "2023-10-16",
			"end": "2023-11-17",
			"earliestApplication": "2023-04-01",
			"latestApplication": "2023-09-17",
			"information": "<![CDATA[ <p><a href=https://sundsvall.se/utbildning-och-forskola/vuxenutbildning/gymnasial--niva/studieformer-och-schema target=_blank>Läs&nbsp;om våra studieformer</a></p><p><br /><a href=https://www.csn.se/ target=_blank>Läs om studiemedel på&nbsp;www.csn.se</a><br />&nbsp;<br />Ditt antagningsbesked<br />Antagningsbesked skickas via e-post cirka två veckor före kursstart.&nbsp;<a href=https://sundsvall.alvis.se/>Se ditt antagningsbesked och följ din ansökan via Mina sidor</a>.</p> ]]>"
		},
		{
			"id": 6002,
			"code": "ADMADM01",
			"name": "Administration 1",
			"provider": "Sundsvalls Kommun",
			"providerUrl": "http://sundsvall.se/vuxenutbildning",
			"level": "gymnasial vuxenutbildning",
			"url": "https://sundsvall.alvis.se/hittakurser/kurs/38769",
			"credits": 100.0,
			"scope": 50.0,
			"studyLocation": "Sundsvall",
			"subjectCode": "ADMADM01",
			"start": "2023-10-16",
			"end": "2023-12-22",
			"earliestApplication": "2023-04-01",
			"latestApplication": "2023-09-17",
			"information": "<![CDATA[ <p><a href=https://sundsvall.se/utbildning-och-forskola/vuxenutbildning/gymnasial--niva/studieformer-och-schema target=_blank>Läs&nbsp;om våra studieformer</a></p><p><br /><a href=https://www.csn.se/ target=_blank>Läs om studiemedel på&nbsp;www.csn.se</a><br />&nbsp;<br />Ditt antagningsbesked<br />Antagningsbesked skickas via e-post cirka två veckor före kursstart.&nbsp;<a href=https://sundsvall.alvis.se/>Se ditt antagningsbesked och följ din ansökan via Mina sidor</a>.</p> ]]>"
		},
		{
			"id": 6003,
			"code": "ADMADM01",
			"name": "Administration 1",
			"provider": "Sundsvalls Kommun",
			"providerUrl": "http://sundsvall.se/vuxenutbildning",
			"level": "gymnasial vuxenutbildning",
			"url": "https://sundsvall.alvis.se/hittakurser/kurs/38769",
			"credits": 100.0,
			"scope": 25.0,
			"studyLocation": "Sundsvall",
			"subjectCode": "ADMADM01",
			"start": "2023-10-16",
			"end": "2024-03-01",
			"earliestApplication": "2023-04-01",
			"latestApplication": "2023-09-17",
			"information": "<![CDATA[ <p><a href=https://sundsvall.se/utbildning-och-forskola/vuxenutbildning/gymnasial--niva/studieformer-och-schema target=_blank>Läs&nbsp;om våra studieformer</a></p><p><br /><a href=https://www.csn.se/ target=_blank>Läs om studiemedel på&nbsp;www.csn.se</a><br />&nbsp;<br />Ditt antagningsbesked<br />Antagningsbesked skickas via e-post cirka två veckor före kursstart.&nbsp;<a href=https://sundsvall.alvis.se/>Se ditt antagningsbesked och följ din ansökan via Mina sidor</a>.</p> ]]>"
		},
		{
			"id": 6004,
			"code": "ADMADM02",
			"name": "Administration 2",
			"provider": "Sundsvalls Kommun",
			"providerUrl": "http://sundsvall.se/vuxenutbildning",
			"level": "gymnasial vuxenutbildning",
			"url": "https://sundsvall.alvis.se/hittakurser/kurs/38770",
			"credits": 100.0,
			"scope": 100.0,
			"studyLocation": "Sundsvall",
			"subjectCode": "ADMADM02",
			"start": "2023-10-16",
			"end": "2023-11-17",
			"earliestApplication": "2023-04-01",
			"latestApplication": "2023-09-17",
			"information": "<![CDATA[ <p><a href=https://sundsvall.se/utbildning-och-forskola/vuxenutbildning/gymnasial--niva/studieformer-och-schema target=_blank>Läs&nbsp;om våra studieformer</a></p><p><br /><a href=https://www.csn.se/ target=_blank>Läs om studiemedel på&nbsp;www.csn.se</a><br />&nbsp;<br />Ditt antagningsbesked<br />Antagningsbesked skickas via e-post cirka två veckor före kursstart.&nbsp;<a href=https://sundsvall.alvis.se/>Se ditt antagningsbesked och följ din ansökan via Mina sidor</a>.</p> ]]>"
		},
		{
			"id": 6005,
			"code": "ADMADM02",
			"name": "Administration 2",
			"provider": "Sundsvalls Kommun",
			"providerUrl": "http://sundsvall.se/vuxenutbildning",
			"level": "gymnasial vuxenutbildning",
			"url": "https://sundsvall.alvis.se/hittakurser/kurs/38770",
			"credits": 100.0,
			"scope": 50.0,
			"studyLocation": "Sundsvall",
			"subjectCode": "ADMADM02",
			"start": "2023-10-16",
			"end": "2023-12-22",
			"earliestApplication": "2023-04-01",
			"latestApplication": "2023-09-17",
			"information": "<![CDATA[ <p><a href=https://sundsvall.se/utbildning-och-forskola/vuxenutbildning/gymnasial--niva/studieformer-och-schema target=_blank>Läs&nbsp;om våra studieformer</a></p><p><br /><a href=https://www.csn.se/ target=_blank>Läs om studiemedel på&nbsp;www.csn.se</a><br />&nbsp;<br />Ditt antagningsbesked<br />Antagningsbesked skickas via e-post cirka två veckor före kursstart.&nbsp;<a href=https://sundsvall.alvis.se/>Se ditt antagningsbesked och följ din ansökan via Mina sidor</a>.</p> ]]>"
		},
		{
			"id": 6006,
			"code": "ADMADM02",
			"name": "Administration 2",
			"provider": "Sundsvalls Kommun",
			"providerUrl": "http://sundsvall.se/vuxenutbildning",
			"level": "gymnasial vuxenutbildning",
			"url": "https://sundsvall.alvis.se/hittakurser/kurs/38770",
			"credits": 100.0,
			"scope": 25.0,
			"studyLocation": "Sundsvall",
			"subjectCode": "ADMADM02",
			"start": "2023-10-16",
			"end": "2024-03-01",
			"earliestApplication": "2023-04-01",
			"latestApplication": "2023-09-17",
			"information": "<![CDATA[ <p><a href=https://sundsvall.se/utbildning-och-forskola/vuxenutbildning/gymnasial--niva/studieformer-och-schema target=_blank>Läs&nbsp;om våra studieformer</a></p><p><br /><a href=https://www.csn.se/ target=_blank>Läs om studiemedel på&nbsp;www.csn.se</a><br />&nbsp;<br />Ditt antagningsbesked<br />Antagningsbesked skickas via e-post cirka två veckor före kursstart.&nbsp;<a href=https://sundsvall.alvis.se/>Se ditt antagningsbesked och följ din ansökan via Mina sidor</a>.</p> ]]>"
		},
		{
			"id": 6007,
			"code": "ADMADM00S",
			"name": "Administration specialisering",
			"provider": "Sundsvalls Kommun",
			"providerUrl": "http://sundsvall.se/vuxenutbildning",
			"level": "gymnasial vuxenutbildning",
			"url": "https://sundsvall.alvis.se/hittakurser/kurs/38772",
			"credits": 100.0,
			"scope": 100.0,
			"studyLocation": "Sundsvall",
			"subjectCode": "ADMADM00S",
			"start": "2023-10-16",
			"end": "2023-11-17",
			"earliestApplication": "2023-04-01",
			"latestApplication": "2023-09-17",
			"information": "<![CDATA[ <p><a href=https://sundsvall.se/utbildning-och-forskola/vuxenutbildning/gymnasial--niva/studieformer-och-schema target=_blank>Läs&nbsp;om våra studieformer</a></p><p><br /><a href=https://www.csn.se/ target=_blank>Läs om studiemedel på&nbsp;www.csn.se</a><br />&nbsp;<br />Ditt antagningsbesked<br />Antagningsbesked skickas via e-post cirka två veckor före kursstart.&nbsp;<a href=https://sundsvall.alvis.se/>Se ditt antagningsbesked och följ din ansökan via Mina sidor</a>.</p> ]]>"
		},
		{
			"id": 6008,
			"code": "ADMADM00S",
			"name": "Administration specialisering",
			"provider": "Sundsvalls Kommun",
			"providerUrl": "http://sundsvall.se/vuxenutbildning",
			"level": "gymnasial vuxenutbildning",
			"url": "https://sundsvall.alvis.se/hittakurser/kurs/38772",
			"credits": 100.0,
			"scope": 50.0,
			"studyLocation": "Sundsvall",
			"subjectCode": "ADMADM00S",
			"start": "2023-10-16",
			"end": "2023-12-22",
			"earliestApplication": "2023-04-01",
			"latestApplication": "2023-09-17",
			"information": "<![CDATA[ <p><a href=https://sundsvall.se/utbildning-och-forskola/vuxenutbildning/gymnasial--niva/studieformer-och-schema target=_blank>Läs&nbsp;om våra studieformer</a></p><p><br /><a href=https://www.csn.se/ target=_blank>Läs om studiemedel på&nbsp;www.csn.se</a><br />&nbsp;<br />Ditt antagningsbesked<br />Antagningsbesked skickas via e-post cirka två veckor före kursstart.&nbsp;<a href=https://sundsvall.alvis.se/>Se ditt antagningsbesked och följ din ansökan via Mina sidor</a>.</p> ]]>"
		},
		{
			"id": 6009,
			"code": "ADMADM00S",
			"name": "Administration specialisering",
			"provider": "Sundsvalls Kommun",
			"providerUrl": "http://sundsvall.se/vuxenutbildning",
			"level": "gymnasial vuxenutbildning",
			"url": "https://sundsvall.alvis.se/hittakurser/kurs/38772",
			"credits": 100.0,
			"scope": 25.0,
			"studyLocation": "Sundsvall",
			"subjectCode": "ADMADM00S",
			"start": "2023-10-16",
			"end": "2024-03-01",
			"earliestApplication": "2023-04-01",
			"latestApplication": "2023-09-17",
			"information": "<![CDATA[ <p><a href=https://sundsvall.se/utbildning-och-forskola/vuxenutbildning/gymnasial--niva/studieformer-och-schema target=_blank>Läs&nbsp;om våra studieformer</a></p><p><br /><a href=https://www.csn.se/ target=_blank>Läs om studiemedel på&nbsp;www.csn.se</a><br />&nbsp;<br />Ditt antagningsbesked<br />Antagningsbesked skickas via e-post cirka två veckor före kursstart.&nbsp;<a href=https://sundsvall.alvis.se/>Se ditt antagningsbesked och följ din ansökan via Mina sidor</a>.</p> ]]>"
		},
		{
			"id": 6010,
			"code": "ADMPER0",
			"name": "Personaladministration",
			"provider": "Sundsvalls Kommun",
			"providerUrl": "http://sundsvall.se/vuxenutbildning",
			"level": "gymnasial vuxenutbildning",
			"url": "https://sundsvall.alvis.se/hittakurser/kurs/38831",
			"credits": 100.0,
			"scope": 100.0,
			"studyLocation": "Sundsvall",
			"subjectCode": "ADMPER0",
			"start": "2023-10-16",
			"end": "2023-11-17",
			"earliestApplication": "2023-04-01",
			"latestApplication": "2023-09-17",
			"information": "<![CDATA[ <p><a href=https://sundsvall.se/utbildning-och-forskola/vuxenutbildning/gymnasial--niva/studieformer-och-schema target=_blank>Läs&nbsp;om våra studieformer</a></p><p><br /><a href=https://www.csn.se/ target=_blank>Läs om studiemedel på&nbsp;www.csn.se</a><br />&nbsp;<br />Ditt antagningsbesked<br />Antagningsbesked skickas via e-post cirka två veckor före kursstart.&nbsp;<a href=https://sundsvall.alvis.se/>Se ditt antagningsbesked och följ din ansökan via Mina sidor</a>.</p> ]]>"
		},
		{
			"id": 6011,
			"code": "ADMPER0",
			"name": "Personaladministration",
			"provider": "Sundsvalls Kommun",
			"providerUrl": "http://sundsvall.se/vuxenutbildning",
			"level": "gymnasial vuxenutbildning",
			"url": "https://sundsvall.alvis.se/hittakurser/kurs/38831",
			"credits": 100.0,
			"scope": 50.0,
			"studyLocation": "Sundsvall",
			"subjectCode": "ADMPER0",
			"start": "2023-10-16",
			"end": "2023-12-22",
			"earliestApplication": "2023-04-01",
			"latestApplication": "2023-09-17",
			"information": "<![CDATA[ <p><a href=https://sundsvall.se/utbildning-och-forskola/vuxenutbildning/gymnasial--niva/studieformer-och-schema target=_blank>Läs&nbsp;om våra studieformer</a></p><p><br /><a href=https://www.csn.se/ target=_blank>Läs om studiemedel på&nbsp;www.csn.se</a><br />&nbsp;<br />Ditt antagningsbesked<br />Antagningsbesked skickas via e-post cirka två veckor före kursstart.&nbsp;<a href=https://sundsvall.alvis.se/>Se ditt antagningsbesked och följ din ansökan via Mina sidor</a>.</p> ]]>"
		},
		{
			"id": 6012,
			"code": "ADMPER0",
			"name": "Personaladministration",
			"provider": "Sundsvalls Kommun",
			"providerUrl": "http://sundsvall.se/vuxenutbildning",
			"level": "gymnasial vuxenutbildning",
			"url": "https://sundsvall.alvis.se/hittakurser/kurs/38831",
			"credits": 100.0,
			"scope": 25.0,
			"studyLocation": "Sundsvall",
			"subjectCode": "ADMPER0",
			"start": "2023-10-16",
			"end": "2024-03-01",
			"earliestApplication": "2023-04-01",
			"latestApplication": "2023-09-17",
			"information": "<![CDATA[ <p><a href=https://sundsvall.se/utbildning-och-forskola/vuxenutbildning/gymnasial--niva/studieformer-och-schema target=_blank>Läs&nbsp;om våra studieformer</a></p><p><br /><a href=https://www.csn.se/ target=_blank>Läs om studiemedel på&nbsp;www.csn.se</a><br />&nbsp;<br />Ditt antagningsbesked<br />Antagningsbesked skickas via e-post cirka två veckor före kursstart.&nbsp;<a href=https://sundsvall.alvis.se/>Se ditt antagningsbesked och följ din ansökan via Mina sidor</a>.</p> ]]>"
		},
		{
			"id": 6013,
			"code": "ADMREC0",
			"name": "Receptions- och konferensservice",
			"provider": "Sundsvalls Kommun",
			"providerUrl": "http://sundsvall.se/vuxenutbildning",
			"level": "gymnasial vuxenutbildning",
			"url": "https://sundsvall.alvis.se/hittakurser/kurs/38838",
			"credits": 100.0,
			"scope": 100.0,
			"studyLocation": "Sundsvall",
			"subjectCode": "ADMREC0",
			"start": "2023-10-16",
			"end": "2023-11-17",
			"earliestApplication": "2023-04-01",
			"latestApplication": "2023-09-17",
			"information": "<![CDATA[ <p><a href=https://sundsvall.se/utbildning-och-forskola/vuxenutbildning/gymnasial--niva/studieformer-och-schema target=_blank>Läs&nbsp;om våra studieformer</a></p><p><br /><a href=https://www.csn.se/ target=_blank>Läs om studiemedel på&nbsp;www.csn.se</a><br />&nbsp;<br />Ditt antagningsbesked<br />Antagningsbesked skickas via e-post cirka två veckor före kursstart.&nbsp;<a href=https://sundsvall.alvis.se/>Se ditt antagningsbesked och följ din ansökan via Mina sidor</a>.</p> ]]>"
		},
		{
			"id": 6014,
			"code": "ADMREC0",
			"name": "Receptions- och konferensservice",
			"provider": "Sundsvalls Kommun",
			"providerUrl": "http://sundsvall.se/vuxenutbildning",
			"level": "gymnasial vuxenutbildning",
			"url": "https://sundsvall.alvis.se/hittakurser/kurs/38838",
			"credits": 100.0,
			"scope": 50.0,
			"studyLocation": "Sundsvall",
			"subjectCode": "ADMREC0",
			"start": "2023-10-16",
			"end": "2023-12-22",
			"earliestApplication": "2023-04-01",
			"latestApplication": "2023-09-17",
			"information": "<![CDATA[ <p><a href=https://sundsvall.se/utbildning-och-forskola/vuxenutbildning/gymnasial--niva/studieformer-och-schema target=_blank>Läs&nbsp;om våra studieformer</a></p><p><br /><a href=https://www.csn.se/ target=_blank>Läs om studiemedel på&nbsp;www.csn.se</a><br />&nbsp;<br />Ditt antagningsbesked<br />Antagningsbesked skickas via e-post cirka två veckor före kursstart.&nbsp;<a href=https://sundsvall.alvis.se/>Se ditt antagningsbesked och följ din ansökan via Mina sidor</a>.</p> ]]>"
		},
		{
			"id": 6015,
			"code": "ADMREC0",
			"name": "Receptions- och konferensservice",
			"provider": "Sundsvalls Kommun",
			"providerUrl": "http://sundsvall.se/vuxenutbildning",
			"level": "gymnasial vuxenutbildning",
			"url": "https://sundsvall.alvis.se/hittakurser/kurs/38838",
			"credits": 100.0,
			"scope": 25.0,
			"studyLocation": "Sundsvall",
			"subjectCode": "ADMREC0",
			"start": "2023-10-16",
			"end": "2024-03-01",
			"earliestApplication": "2023-04-01",
			"latestApplication": "2023-09-17",
			"information": "<![CDATA[ <p><a href=https://sundsvall.se/utbildning-och-forskola/vuxenutbildning/gymnasial--niva/studieformer-och-schema target=_blank>Läs&nbsp;om våra studieformer</a></p><p><br /><a href=https://www.csn.se/ target=_blank>Läs om studiemedel på&nbsp;www.csn.se</a><br />&nbsp;<br />Ditt antagningsbesked<br />Antagningsbesked skickas via e-post cirka två veckor före kursstart.&nbsp;<a href=https://sundsvall.alvis.se/>Se ditt antagningsbesked och följ din ansökan via Mina sidor</a>.</p> ]]>"
		},
		{
			"id": 6016,
			"code": "JURAFF0",
			"name": "Affärsjuridik",
			"provider": "Sundsvalls Kommun",
			"providerUrl": "http://sundsvall.se/vuxenutbildning",
			"level": "gymnasial vuxenutbildning",
			"url": "https://sundsvall.alvis.se/hittakurser/kurs/38773",
			"credits": 100.0,
			"scope": 100.0,
			"studyLocation": "Sundsvall",
			"subjectCode": "JURAFF0",
			"start": "2023-10-16",
			"end": "2023-11-17",
			"earliestApplication": "2023-04-01",
			"latestApplication": "2023-09-17",
			"information": "<![CDATA[ <p><a href=https://sundsvall.se/utbildning-och-forskola/vuxenutbildning/gymnasial--niva/studieformer-och-schema target=_blank>Läs&nbsp;om våra studieformer</a></p><p><br /><a href=https://www.csn.se/ target=_blank>Läs om studiemedel på&nbsp;www.csn.se</a><br />&nbsp;<br />Ditt antagningsbesked<br />Antagningsbesked skickas via e-post cirka två veckor före kursstart.&nbsp;<a href=https://sundsvall.alvis.se/>Se ditt antagningsbesked och följ din ansökan via Mina sidor</a>.</p> ]]>"
		},
		{
			"id": 6017,
			"code": "JURAFF0",
			"name": "Affärsjuridik",
			"provider": "Sundsvalls Kommun",
			"providerUrl": "http://sundsvall.se/vuxenutbildning",
			"level": "gymnasial vuxenutbildning",
			"url": "https://sundsvall.alvis.se/hittakurser/kurs/38773",
			"credits": 100.0,
			"scope": 50.0,
			"studyLocation": "Sundsvall",
			"subjectCode": "JURAFF0",
			"start": "2023-10-16",
			"end": "2023-12-22",
			"earliestApplication": "2023-04-01",
			"latestApplication": "2023-09-17",
			"information": "<![CDATA[ <p><a href=https://sundsvall.se/utbildning-och-forskola/vuxenutbildning/gymnasial--niva/studieformer-och-schema target=_blank>Läs&nbsp;om våra studieformer</a></p><p><br /><a href=https://www.csn.se/ target=_blank>Läs om studiemedel på&nbsp;www.csn.se</a><br />&nbsp;<br />Ditt antagningsbesked<br />Antagningsbesked skickas via e-post cirka två veckor före kursstart.&nbsp;<a href=https://sundsvall.alvis.se/>Se ditt antagningsbesked och följ din ansökan via Mina sidor</a>.</p> ]]>"
		},
		{
			"id": 6018,
			"code": "JURAFF0",
			"name": "Affärsjuridik",
			"provider": "Sundsvalls Kommun",
			"providerUrl": "http://sundsvall.se/vuxenutbildning",
			"level": "gymnasial vuxenutbildning",
			"url": "https://sundsvall.alvis.se/hittakurser/kurs/38773",
			"credits": 100.0,
			"scope": 25.0,
			"studyLocation": "Sundsvall",
			"subjectCode": "JURAFF0",
			"start": "2023-10-16",
			"end": "2024-03-01",
			"earliestApplication": "2023-04-01",
			"latestApplication": "2023-09-17",
			"information": "<![CDATA[ <p><a href=https://sundsvall.se/utbildning-och-forskola/vuxenutbildning/gymnasial--niva/studieformer-och-schema target=_blank>Läs&nbsp;om våra studieformer</a></p><p><br /><a href=https://www.csn.se/ target=_blank>Läs om studiemedel på&nbsp;www.csn.se</a><br />&nbsp;<br />Ditt antagningsbesked<br />Antagningsbesked skickas via e-post cirka två veckor före kursstart.&nbsp;<a href=https://sundsvall.alvis.se/>Se ditt antagningsbesked och följ din ansökan via Mina sidor</a>.</p> ]]>"
		},
		{
			"id": 6019,
			"code": "AFFAFÄ00S",
			"name": "Affärskommunikation",
			"provider": "Sundsvalls Kommun",
			"providerUrl": "http://sundsvall.se/vuxenutbildning",
			"level": "gymnasial vuxenutbildning",
			"url": "https://sundsvall.alvis.se/hittakurser/kurs/38774",
			"credits": 100.0,
			"scope": 100.0,
			"studyLocation": "Sundsvall",
			"subjectCode": "AFFAFÄ00S",
			"start": "2023-10-16",
			"end": "2023-11-17",
			"earliestApplication": "2023-04-01",
			"latestApplication": "2023-09-17",
			"information": "<![CDATA[ <p><a href=https://sundsvall.se/utbildning-och-forskola/vuxenutbildning/gymnasial--niva/studieformer-och-schema target=_blank>Läs&nbsp;om våra studieformer</a></p><p><br /><a href=https://www.csn.se/ target=_blank>Läs om studiemedel på&nbsp;www.csn.se</a><br />&nbsp;<br />Ditt antagningsbesked<br />Antagningsbesked skickas via e-post cirka två veckor före kursstart.&nbsp;<a href=https://sundsvall.alvis.se/>Se ditt antagningsbesked och följ din ansökan via Mina sidor</a>.</p> ]]>"
		},
		{
			"id": 6020,
			"code": "AFFAFÄ00S",
			"name": "Affärskommunikation",
			"provider": "Sundsvalls Kommun",
			"providerUrl": "http://sundsvall.se/vuxenutbildning",
			"level": "gymnasial vuxenutbildning",
			"url": "https://sundsvall.alvis.se/hittakurser/kurs/38774",
			"credits": 100.0,
			"scope": 50.0,
			"studyLocation": "Sundsvall",
			"subjectCode": "AFFAFÄ00S",
			"start": "2023-10-16",
			"end": "2023-12-22",
			"earliestApplication": "2023-04-01",
			"latestApplication": "2023-09-17",
			"information": "<![CDATA[ <p><a href=https://sundsvall.se/utbildning-och-forskola/vuxenutbildning/gymnasial--niva/studieformer-och-schema target=_blank>Läs&nbsp;om våra studieformer</a></p><p><br /><a href=https://www.csn.se/ target=_blank>Läs om studiemedel på&nbsp;www.csn.se</a><br />&nbsp;<br />Ditt antagningsbesked<br />Antagningsbesked skickas via e-post cirka två veckor före kursstart.&nbsp;<a href=https://sundsvall.alvis.se/>Se ditt antagningsbesked och följ din ansökan via Mina sidor</a>.</p> ]]>"
		}
	],
	"_meta": {
		"page": 0,
		"limit": 20,
		"count": 20,
		"totalRecords": 863,
		"totalPages": 44
	}
}