{
	"courses": [
		{
			"code": "SGRIND7",
			"level": "Kommunal vuxenutbildning som anpassad utbildning på grundläggande nivå",
			"earliestApplication": "2023-04-01",
			"latestApplication": "2023-09-17",
			"studyLocation": "Sundsvall",
			"providerUrl": "http://sundsvall.se/vuxenutbildning",
			"url": "https://sundsvall.alvis.se/hittakurser/kurs/59390",
			"provider": "Sundsvalls Kommun",
			"credits": 1200,
			"scope": 100,
			"name": "Individ och samhälle",
			"information": "<![CDATA[ <p>Komvux som anpassad&nbsp;utbildning är för dig som har en intellektuell funktionsnedsättning eller förvärvad hjärnskada.<\/p><p>Kursen är för dig som vill:&nbsp;<\/p><ul>\t<li>\t<p>studera närmiljön, traditioner och högtider<\/p>\t<\/li>\t<li>\t<p>samtala om livsfrågor, kamratskap och relationer<\/p>\t<\/li>\t<li>\t<p>diskutera aktuella händelser i samhället<\/p>\t<\/li><\/ul><p>Studietakt: individuell<\/p><p>Nivå: grundläggande<\/p><p>Antagning: löpande i mån av plats<\/p><div>&nbsp;<\/div><br />&nbsp; ]]>",
			"id": 1346,
			"category": "Samhällsvetenskap och juridik",
			"subcategory": "Samhällsvetenskap",
			"subjectCode": "SGRIND7"
		},
		{
			"code": "SGRIND7",
			"level": "Kommunal vuxenutbildning som anpassad utbildning på grundläggande nivå",
			"earliestApplication": "2023-04-01",
			"latestApplication": "2023-09-17",
			"studyLocation": "Sundsvall",
			"providerUrl": "http://sundsvall.se/vuxenutbildning",
			"url": "https://sundsvall.alvis.se/hittakurser/kurs/59390",
			"provider": "Sundsvalls Kommun",
			"credits": 1200,
			"scope": 100,
			"name": "Individ och samhälle",
			"information": "<![CDATA[ <p>Komvux som anpassad&nbsp;utbildning är för dig som har en intellektuell funktionsnedsättning eller förvärvad hjärnskada.<\/p><p>Kursen är för dig som vill:&nbsp;<\/p><ul>\t<li>\t<p>studera närmiljön, traditioner och högtider<\/p>\t<\/li>\t<li>\t<p>samtala om livsfrågor, kamratskap och relationer<\/p>\t<\/li>\t<li>\t<p>diskutera aktuella händelser i samhället<\/p>\t<\/li><\/ul><p>Studietakt: individuell<\/p><p>Nivå: grundläggande<\/p><p>Antagning: löpande i mån av plats<\/p><div>&nbsp;<\/div><br />&nbsp; ]]>",
			"id": 1346,
			"category": "Samhällsvetenskap och juridik",
			"subcategory": "Samhällsvetenskap",
			"subjectCode": "SGRIND7"
		},
		{
			"code": "SGRINDU",
			"level": "Kommunal vuxenutbildning som anpassad utbildning på grundläggande nivå",
			"earliestApplication": "2023-04-01",
			"latestApplication": "2023-09-17",
			"studyLocation": "Sundsvall",
			"providerUrl": "http://sundsvall.se/vuxenutbildning",
			"url": "https://sundsvall.alvis.se/hittakurser/kurs/59533",
			"provider": "Sundsvalls Kommun",
			"credits": 400,
			"scope": 100,
			"name": "Vardagsrutiner och vardagsmiljö",
			"information": "<![CDATA[ <p>Komvux som anpassad&nbsp;utbildning är för dig som har en intellektuell funktionsnedsättning eller förvärvad hjärnskada.<\/p><p>Kursen är för dig som vill:<\/p><ul>\t<li>\t<p>lära dig om redskap, verktyg och teknisk utrustning som används i hushållet<\/p>\t<\/li>\t<li>\t<p>lära dig mer om inköp, planering och genomförande<\/p>\t<\/li>\t<li>\t<p>veta mer om sambandet mellan mat och hälsa<\/p>\t<\/li><\/ul><p>Studietakt: individuell<\/p><p>Nivå: grundläggande<\/p>Antagning: löpande i mån av plats<br />&nbsp; ]]>",
			"id": 1348,
			"category": "Övriga kurser och tvärvetenskap",
			"subcategory": "Övriga kurser",
			"subjectCode": "SGRINDU"
		}
	],
	"_meta": {
		"totalRecords": 46,
		"limit": 3,
		"count": 3,
		"totalPages": 16,
		"page": 0
	}
}
