{
	"courses": [
		{
			"code": "YH00659",
			"level": "yrkeshögskoleutbildning",
			"start": "2023-09-04",
			"studyLocation": "Kramfors",
			"providerUrl": "www.yhk.se",
			"url": "https://www.yhk.se/",
			"provider": "Kramfors kommun, Yrkeshögskolan Höga kusten",
			"credits": 400,
			"scope": 100,
			"name": "Byggnadsvård - Interiör och Hantverk",
			"end": "2025-06-06",
			"information": "För en byggnadsvårdare är oftast inte den ena dagen lik den andra. Efter utbildning hos oss kan du jobba med t.ex. tillverkning av specialsnickerier så som kök, dörrar och fönster men även restaureringsarbeten av historiskt värdefulla snickerier i exempelvis kyrkor, kulturmiljöer och andra byggnadsminnen. Även projektering och planering av arbeten med objekt skyddade av kulturminneslagen ingår.För att trivas inom kulturmiljövården bör du tycka om att jobba med utmaningar, vara flexibel och hantera snabba ändringar som kan uppstå i ett projekt. Du kan jobba mot högt ställda krav samtidigt som du har en ödmjukhet inför objekten och har ett öga för detaljer och historiskt ursprung. Du tycker det är roligt med problemlösning, är kritiskt undersökande och nyfiken på att hela tiden lära dig mer.Utbildningen innehåller bland annat kurser inom fönsterhantverk, profilhyvling för hand, rittekniker, traditionellt måleri, företagande samt restaurering och tillverkning av äldre inredningssnickerier. Vi ger dig en bred bas och kunskap om kulturmiljövårdens hantverk, synsätt och värderingar. Du utvecklar din känsla för detaljer och med inspiration från hantverkare, antikvarier, konservatorer och arkitekter får du inblick i hantverk, materialkunskap och verktygsvård.En hantverkares kompetens inom kulturmiljövården är högt efterfrågad och jobben finns hos konsultföretag, entreprenörer, kommuner men även hos statliga organisationer som exempelvis länsmuseer och länsstyrelser. Skansen i Stockholm, Gunnebo Slott utanför Mölndal, Jamtli i Östersund, Skärgårdsstiftelsen och alla företag inom specialsnickerier så som Gamla stans kulturbygg, Kompetens i trä, Kulturarvet med flera är alla potentiella arbetsplatser.Det råder idag och under lång tid framöver brist på utbildade hantverkare med kunskap om både praktiskt hantverk och kulturmiljövårdens synsätt. Samhällets krav på hållbarhet och kvalitet ökar hela tiden vilket gör att branschens efterfrågan på utbildad kompetent personal också ökar.Utbildningen är upplagd så att du som studerande skall få så bra förutsättningar som möjligt i din kommande yrkesroll. En del av utbildningen sker därför ute på olika företag och arbetsplatser i kursen Lärande i arbete (LIA). Där får du praktisera och tillämpa dina kunskaper samt se och lära av verkligheten. Under LIA-perioden har man handledare vid sin sida som tar huvudansvaret, stöttar och leder arbetet.Genom ett stort och aktuellt kontaktnät i branschen, får du som studerar hos oss på Yrkeshögskolan Höga kusten i Kramfors, mycket goda förutsättningar att hitta en intressant, och lärorik praktikplats på ett företag. Hos oss får du de kunskaper och verktyg du behöver för att kunna arbeta som anställd eller egen företagare.Kommentarer från branschen:\u201cUtan de historiska hantverken kan varken möbler eller byggnader bevaras till framtiden\u201d.- Stefan Günther, Slottsarkitekt vid Gunnebo Slott och Trädgårdar AB.",
			"id": 2162,
			"subjectCode": "525582d"
		},
		{
			"code": "YH00659",
			"level": "yrkeshögskoleutbildning",
			"start": "2024-09-02",
			"latestApplication": "2024-04-15",
			"studyLocation": "Kramfors",
			"providerUrl": "www.yhk.se",
			"url": "https://www.yhk.se/",
			"provider": "Kramfors kommun, Yrkeshögskolan Höga kusten",
			"credits": 400,
			"scope": 100,
			"name": "Byggnadsvård - Interiör och Hantverk",
			"end": "2026-06-05",
			"information": "För en byggnadsvårdare är oftast inte den ena dagen lik den andra. Efter utbildning hos oss kan du jobba med t.ex. tillverkning av specialsnickerier så som kök, dörrar och fönster men även restaureringsarbeten av historiskt värdefulla snickerier i exempelvis kyrkor, kulturmiljöer och andra byggnadsminnen. Även projektering och planering av arbeten med objekt skyddade av kulturminneslagen ingår.För att trivas inom kulturmiljövården bör du tycka om att jobba med utmaningar, vara flexibel och hantera snabba ändringar som kan uppstå i ett projekt. Du kan jobba mot högt ställda krav samtidigt som du har en ödmjukhet inför objekten och har ett öga för detaljer och historiskt ursprung. Du tycker det är roligt med problemlösning, är kritiskt undersökande och nyfiken på att hela tiden lära dig mer.Utbildningen innehåller bland annat kurser inom fönsterhantverk, profilhyvling för hand, rittekniker, traditionellt måleri, företagande samt restaurering och tillverkning av äldre inredningssnickerier. Vi ger dig en bred bas och kunskap om kulturmiljövårdens hantverk, synsätt och värderingar. Du utvecklar din känsla för detaljer och med inspiration från hantverkare, antikvarier, konservatorer och arkitekter får du inblick i hantverk, materialkunskap och verktygsvård.En hantverkares kompetens inom kulturmiljövården är högt efterfrågad och jobben finns hos konsultföretag, entreprenörer, kommuner men även hos statliga organisationer som exempelvis länsmuseer och länsstyrelser. Skansen i Stockholm, Gunnebo Slott utanför Mölndal, Jamtli i Östersund, Skärgårdsstiftelsen och alla företag inom specialsnickerier så som Gamla stans kulturbygg, Kompetens i trä, Kulturarvet med flera är alla potentiella arbetsplatser.Det råder idag och under lång tid framöver brist på utbildade hantverkare med kunskap om både praktiskt hantverk och kulturmiljövårdens synsätt. Samhällets krav på hållbarhet och kvalitet ökar hela tiden vilket gör att branschens efterfrågan på utbildad kompetent personal också ökar.Utbildningen är upplagd så att du som studerande skall få så bra förutsättningar som möjligt i din kommande yrkesroll. En del av utbildningen sker därför ute på olika företag och arbetsplatser i kursen Lärande i arbete (LIA). Där får du praktisera och tillämpa dina kunskaper samt se och lära av verkligheten. Under LIA-perioden har man handledare vid sin sida som tar huvudansvaret, stöttar och leder arbetet.Genom ett stort och aktuellt kontaktnät i branschen, får du som studerar hos oss på Yrkeshögskolan Höga kusten i Kramfors, mycket goda förutsättningar att hitta en intressant, och lärorik praktikplats på ett företag. Hos oss får du de kunskaper och verktyg du behöver för att kunna arbeta som anställd eller egen företagare.Kommentarer från branschen:\u201cUtan de historiska hantverken kan varken möbler eller byggnader bevaras till framtiden\u201d.- Stefan Günther, Slottsarkitekt vid Gunnebo Slott och Trädgårdar AB.",
			"id": 2163,
			"subjectCode": "525582d"
		},
		{
			"code": "YH00659",
			"level": "yrkeshögskoleutbildning",
			"start": "2025-09-01",
			"studyLocation": "Kramfors",
			"providerUrl": "www.yhk.se",
			"url": "https://www.yhk.se/",
			"provider": "Kramfors kommun, Yrkeshögskolan Höga kusten",
			"credits": 400,
			"scope": 100,
			"name": "Byggnadsvård - Interiör och Hantverk",
			"end": "2027-06-30",
			"information": "För en byggnadsvårdare är oftast inte den ena dagen lik den andra. Efter utbildning hos oss kan du jobba med t.ex. tillverkning av specialsnickerier så som kök, dörrar och fönster men även restaureringsarbeten av historiskt värdefulla snickerier i exempelvis kyrkor, kulturmiljöer och andra byggnadsminnen. Även projektering och planering av arbeten med objekt skyddade av kulturminneslagen ingår.För att trivas inom kulturmiljövården bör du tycka om att jobba med utmaningar, vara flexibel och hantera snabba ändringar som kan uppstå i ett projekt. Du kan jobba mot högt ställda krav samtidigt som du har en ödmjukhet inför objekten och har ett öga för detaljer och historiskt ursprung. Du tycker det är roligt med problemlösning, är kritiskt undersökande och nyfiken på att hela tiden lära dig mer.Utbildningen innehåller bland annat kurser inom fönsterhantverk, profilhyvling för hand, rittekniker, traditionellt måleri, företagande samt restaurering och tillverkning av äldre inredningssnickerier. Vi ger dig en bred bas och kunskap om kulturmiljövårdens hantverk, synsätt och värderingar. Du utvecklar din känsla för detaljer och med inspiration från hantverkare, antikvarier, konservatorer och arkitekter får du inblick i hantverk, materialkunskap och verktygsvård.En hantverkares kompetens inom kulturmiljövården är högt efterfrågad och jobben finns hos konsultföretag, entreprenörer, kommuner men även hos statliga organisationer som exempelvis länsmuseer och länsstyrelser. Skansen i Stockholm, Gunnebo Slott utanför Mölndal, Jamtli i Östersund, Skärgårdsstiftelsen och alla företag inom specialsnickerier så som Gamla stans kulturbygg, Kompetens i trä, Kulturarvet med flera är alla potentiella arbetsplatser.Det råder idag och under lång tid framöver brist på utbildade hantverkare med kunskap om både praktiskt hantverk och kulturmiljövårdens synsätt. Samhällets krav på hållbarhet och kvalitet ökar hela tiden vilket gör att branschens efterfrågan på utbildad kompetent personal också ökar.Utbildningen är upplagd så att du som studerande skall få så bra förutsättningar som möjligt i din kommande yrkesroll. En del av utbildningen sker därför ute på olika företag och arbetsplatser i kursen Lärande i arbete (LIA). Där får du praktisera och tillämpa dina kunskaper samt se och lära av verkligheten. Under LIA-perioden har man handledare vid sin sida som tar huvudansvaret, stöttar och leder arbetet.Genom ett stort och aktuellt kontaktnät i branschen, får du som studerar hos oss på Yrkeshögskolan Höga kusten i Kramfors, mycket goda förutsättningar att hitta en intressant, och lärorik praktikplats på ett företag. Hos oss får du de kunskaper och verktyg du behöver för att kunna arbeta som anställd eller egen företagare.Kommentarer från branschen:\u201cUtan de historiska hantverken kan varken möbler eller byggnader bevaras till framtiden\u201d.- Stefan Günther, Slottsarkitekt vid Gunnebo Slott och Trädgårdar AB.",
			"id": 2164,
			"subjectCode": "525582d"
		},
		{
			"code": "YH01528",
			"level": "yrkeshögskoleutbildning",
			"start": "2023-09-04",
			"latestApplication": "2023-05-15",
			"studyLocation": "Kramfors",
			"providerUrl": "www.yhk.se",
			"url": "https://www.yhk.se",
			"provider": "Kramfors kommun, Yrkeshögskolan Höga kusten",
			"credits": 200,
			"scope": 100,
			"name": "Specialiserad möbelsnickare med inriktning mot gesäll",
			"end": "2024-06-07",
			"information": "Utbildningen för dig som vill ha ett gesäll-brev, ett kvalitetsbevis på att du har ett djupt yrkeskunnande och uppfyller branschens krav.Utbildningens innehållUtbildningen innehåller kurser i affärs- utveckling, design, produktutveckling, konstruktion och arbetsplanering, CNC och avslutas med ett examensarbete inriktat mot gesäll. En specialiserad möbel-snickare är en viktig traditionsbärare inom trähantverk och vår tillgång till historiska originalmöbler i undervisningen, är unikt och värdefullt i undervisningssyfte.",
			"id": 2181,
			"subjectCode": "415543c"
		},
		{
			"code": "YH01528",
			"level": "yrkeshögskoleutbildning",
			"start": "2024-09-02",
			"latestApplication": "2024-04-15",
			"studyLocation": "Kramfors",
			"providerUrl": "www.yhk.se",
			"url": "https://www.yhk.se",
			"provider": "Kramfors kommun, Yrkeshögskolan Höga kusten",
			"credits": 200,
			"scope": 100,
			"name": "Specialiserad möbelsnickare med inriktning mot gesäll",
			"end": "2025-06-06",
			"information": "Utbildningen för dig som vill ha ett gesäll-brev, ett kvalitetsbevis på att du har ett djupt yrkeskunnande och uppfyller branschens krav.Utbildningens innehållUtbildningen innehåller kurser i affärs- utveckling, design, produktutveckling, konstruktion och arbetsplanering, CNC och avslutas med ett examensarbete inriktat mot gesäll. En specialiserad möbel-snickare är en viktig traditionsbärare inom trähantverk och vår tillgång till historiska originalmöbler i undervisningen, är unikt och värdefullt i undervisningssyfte.",
			"id": 2182,
			"subjectCode": "415543c"
		}
	],
	"_meta": {
		"totalRecords": 38,
		"limit": 5,
		"count": 5,
		"totalPages": 8,
		"page": 0
	}
}
