{
	"courses": [
		{
			"code": "NAGNAT01",
			"level": "gymnasial vuxenutbildning",
			"start": "2023-10-16",
			"earliestApplication": "2023-04-01",
			"latestApplication": "2023-09-17",
			"studyLocation": "Sundsvall",
			"providerUrl": "http://sundsvall.se/vuxenutbildning",
			"url": "https://sundsvall.alvis.se/hittakurser/kurs/68210",
			"provider": "Sundsvalls Kommun",
			"credits": 100,
			"scope": 100,
			"name": "Naturguidning 1",
			"end": "2023-11-17",
			"information": "<![CDATA[ <p><a href=https://sundsvall.se/utbildning-och-forskola/vuxenutbildning/gymnasial--niva/studieformer-och-schema target=_blank>Läs&nbsp;om våra studieformer<\/a><\/p><p><br /><a href=https://www.csn.se/ target=_blank>Läs om studiemedel på&nbsp;www.csn.se<\/a><br />&nbsp;<br />Ditt antagningsbesked<br />Antagningsbesked skickas via e-post cirka två veckor före kursstart.&nbsp;<a href=https://sundsvall.alvis.se/>Se ditt antagningsbesked och följ din ansökan via Mina sidor<\/a>.<\/p> ]]>",
			"id": 855,
			"category": "Frisk- och skönhetsvård",
			"subcategory": "Friluftsliv",
			"subjectCode": "NAGNAT01"
		},
		{
			"code": "NAGNAT01",
			"level": "gymnasial vuxenutbildning",
			"start": "2023-10-16",
			"earliestApplication": "2023-04-01",
			"latestApplication": "2023-09-17",
			"studyLocation": "Sundsvall",
			"providerUrl": "http://sundsvall.se/vuxenutbildning",
			"url": "https://sundsvall.alvis.se/hittakurser/kurs/68210",
			"provider": "Sundsvalls Kommun",
			"credits": 100,
			"scope": 50,
			"name": "Naturguidning 1",
			"end": "2023-12-22",
			"information": "<![CDATA[ <p><a href=https://sundsvall.se/utbildning-och-forskola/vuxenutbildning/gymnasial--niva/studieformer-och-schema target=_blank>Läs&nbsp;om våra studieformer<\/a><\/p><p><br /><a href=https://www.csn.se/ target=_blank>Läs om studiemedel på&nbsp;www.csn.se<\/a><br />&nbsp;<br />Ditt antagningsbesked<br />Antagningsbesked skickas via e-post cirka två veckor före kursstart.&nbsp;<a href=https://sundsvall.alvis.se/>Se ditt antagningsbesked och följ din ansökan via Mina sidor<\/a>.<\/p> ]]>",
			"id": 862,
			"category": "Frisk- och skönhetsvård",
			"subcategory": "Friluftsliv",
			"subjectCode": "NAGNAT01"
		},
		{
			"code": "NAGNAT01",
			"level": "gymnasial vuxenutbildning",
			"start": "2023-10-16",
			"earliestApplication": "2023-04-01",
			"latestApplication": "2023-09-17",
			"studyLocation": "Sundsvall",
			"providerUrl": "http://sundsvall.se/vuxenutbildning",
			"url": "https://sundsvall.alvis.se/hittakurser/kurs/68210",
			"provider": "Sundsvalls Kommun",
			"credits": 100,
			"scope": 25,
			"name": "Naturguidning 1",
			"end": "2024-03-01",
			"information": "<![CDATA[ <p><a href=https://sundsvall.se/utbildning-och-forskola/vuxenutbildning/gymnasial--niva/studieformer-och-schema target=_blank>Läs&nbsp;om våra studieformer<\/a><\/p><p><br /><a href=https://www.csn.se/ target=_blank>Läs om studiemedel på&nbsp;www.csn.se<\/a><br />&nbsp;<br />Ditt antagningsbesked<br />Antagningsbesked skickas via e-post cirka två veckor före kursstart.&nbsp;<a href=https://sundsvall.alvis.se/>Se ditt antagningsbesked och följ din ansökan via Mina sidor<\/a>.<\/p> ]]>",
			"id": 869,
			"category": "Frisk- och skönhetsvård",
			"subcategory": "Friluftsliv",
			"subjectCode": "NAGNAT01"
		},
		{
			"code": "RESREM0",
			"level": "gymnasial vuxenutbildning",
			"start": "2023-10-16",
			"earliestApplication": "2023-04-01",
			"latestApplication": "2023-09-17",
			"studyLocation": "Sundsvall",
			"providerUrl": "http://sundsvall.se/vuxenutbildning",
			"url": "https://sundsvall.alvis.se/hittakurser/kurs/68219",
			"provider": "Sundsvalls Kommun",
			"credits": 100,
			"scope": 100,
			"name": "Resmål och resvägar",
			"end": "2023-11-17",
			"information": "<![CDATA[ <p><a href=https://sundsvall.se/utbildning-och-forskola/vuxenutbildning/gymnasial--niva/studieformer-och-schema target=_blank>Läs&nbsp;om våra studieformer<\/a><\/p><p><br /><a href=https://www.csn.se/ target=_blank>Läs om studiemedel på&nbsp;www.csn.se<\/a><br />&nbsp;<br />Ditt antagningsbesked<br />Antagningsbesked skickas via e-post cirka två veckor före kursstart.&nbsp;<a href=https://sundsvall.alvis.se/>Se ditt antagningsbesked och följ din ansökan via Mina sidor<\/a>.<\/p> ]]>",
			"id": 1010,
			"category": "Frisk- och skönhetsvård",
			"subcategory": "Friluftsliv",
			"subjectCode": "RESREM0"
		},
		{
			"code": "RESREM0",
			"level": "gymnasial vuxenutbildning",
			"start": "2023-10-16",
			"earliestApplication": "2023-04-01",
			"latestApplication": "2023-09-17",
			"studyLocation": "Sundsvall",
			"providerUrl": "http://sundsvall.se/vuxenutbildning",
			"url": "https://sundsvall.alvis.se/hittakurser/kurs/68219",
			"provider": "Sundsvalls Kommun",
			"credits": 100,
			"scope": 50,
			"name": "Resmål och resvägar",
			"end": "2023-12-22",
			"information": "<![CDATA[ <p><a href=https://sundsvall.se/utbildning-och-forskola/vuxenutbildning/gymnasial--niva/studieformer-och-schema target=_blank>Läs&nbsp;om våra studieformer<\/a><\/p><p><br /><a href=https://www.csn.se/ target=_blank>Läs om studiemedel på&nbsp;www.csn.se<\/a><br />&nbsp;<br />Ditt antagningsbesked<br />Antagningsbesked skickas via e-post cirka två veckor före kursstart.&nbsp;<a href=https://sundsvall.alvis.se/>Se ditt antagningsbesked och följ din ansökan via Mina sidor<\/a>.<\/p> ]]>",
			"id": 1012,
			"category": "Frisk- och skönhetsvård",
			"subcategory": "Friluftsliv",
			"subjectCode": "RESREM0"
		}
	],
	"_meta": {
		"totalRecords": 88,
		"limit": 5,
		"count": 5,
		"totalPages": 18,
		"page": 0
	}
}
