{
	"courses": [
		{
			"id": 1488,
			"code": "",
			"name": "Musiker med yrkesinriktning",
			"provider": "Ålsta folkhögskola",
			"providerUrl": "http://www.alsta.nu/",
			"level": "folkhögskola",
			"url": "https://www.rvn.se/sv/Folkhogskolor/Alsta-Folkhogskola/Vara-kurser/musik-kurser/musiker-med-yrkesinriktning/",
			"scope": 100.0,
			"studyLocation": "Fränsta",
			"subjectCode": "102",
			"category": "Konstnärliga utbildningar",
			"subcategory": "Musik",
			"languageOfInstruction": "swe",
			"start": "2023-08-24",
			"information": "Musiker med yrkesinriktning är en eftergymnasial utbildning som tar din musikalitet ett steg vidare mot ett yrkesinriktat utövande.&nbsp;"
		},
		{
			"id": 1489,
			"code": "",
			"name": "Musiker med yrkesinriktning",
			"provider": "Ålsta folkhögskola",
			"providerUrl": "http://www.alsta.nu/",
			"level": "folkhögskola",
			"url": "https://www.rvn.se/sv/Folkhogskolor/Alsta-Folkhogskola/Vara-kurser/musik-kurser/musiker-med-yrkesinriktning/",
			"scope": 100.0,
			"studyLocation": "Fränsta",
			"subjectCode": "1779",
			"category": "Konstnärliga utbildningar",
			"subcategory": "Musik",
			"languageOfInstruction": "swe",
			"start": "2023-08-24",
			"information": "Musiker med yrkesinriktning är en eftergymnasial utbildning som tar din musikalitet ett steg vidare mot ett yrkesinriktat utövande.&nbsp;"
		},
		{
			"id": 1489,
			"code": "",
			"name": "Musiker med yrkesinriktning",
			"provider": "Ålsta folkhögskola",
			"providerUrl": "http://www.alsta.nu/",
			"level": "folkhögskola",
			"url": "https://www.rvn.se/sv/Folkhogskolor/Alsta-Folkhogskola/Vara-kurser/musik-kurser/musiker-med-yrkesinriktning/",
			"scope": 100.0,
			"studyLocation": "Fränsta",
			"subjectCode": "1779",
			"category": "Konstnärliga utbildningar",
			"subcategory": "Musik",
			"languageOfInstruction": "swe",
			"start": "2023-08-24",
			"information": "Musiker med yrkesinriktning är en eftergymnasial utbildning som tar din musikalitet ett steg vidare mot ett yrkesinriktat utövande.&nbsp;"
		},
		{
			"id": 1491,
			"code": "",
			"name": "Musiker med yrkesinriktning",
			"provider": "Ålsta folkhögskola",
			"providerUrl": "http://www.alsta.nu/",
			"level": "folkhögskola",
			"url": "https://www.rvn.se/sv/Folkhogskolor/Alsta-Folkhogskola/Vara-kurser/musik-kurser/musiker-med-yrkesinriktning/",
			"scope": 100.0,
			"studyLocation": "Fränsta",
			"subjectCode": "1779",
			"category": "Konstnärliga utbildningar",
			"subcategory": "Musik",
			"languageOfInstruction": "swe",
			"start": "2023-08-24",
			"information": "Musiker med yrkesinriktning är en eftergymnasial utbildning som tar din musikalitet ett steg vidare mot ett yrkesinriktat utövande.&nbsp;"
		},
		{
			"id": 1491,
			"code": "",
			"name": "Musiker med yrkesinriktning",
			"provider": "Ålsta folkhögskola",
			"providerUrl": "http://www.alsta.nu/",
			"level": "folkhögskola",
			"url": "https://www.rvn.se/sv/Folkhogskolor/Alsta-Folkhogskola/Vara-kurser/musik-kurser/musiker-med-yrkesinriktning/",
			"scope": 100.0,
			"studyLocation": "Fränsta",
			"subjectCode": "1779",
			"category": "Konstnärliga utbildningar",
			"subcategory": "Musik",
			"languageOfInstruction": "swe",
			"start": "2023-08-24",
			"information": "Musiker med yrkesinriktning är en eftergymnasial utbildning som tar din musikalitet ett steg vidare mot ett yrkesinriktat utövande.&nbsp;"
		}
	],
	"_meta": {
		"page": 0,
		"limit": 5,
		"count": 5,
		"totalRecords": 535,
		"totalPages": 107
	}
}
