{
	"courses": [
		{
			"code": "ADMADM01",
			"level": "gymnasial vuxenutbildning",
			"start": "2023-10-16",
			"earliestApplication": "2023-04-01",
			"latestApplication": "2023-09-17",
			"studyLocation": "Sundsvall",
			"providerUrl": "http://sundsvall.se/vuxenutbildning",
			"url": "https://sundsvall.alvis.se/hittakurser/kurs/38769",
			"provider": "Sundsvalls Kommun",
			"credits": 100,
			"scope": 25,
			"name": "Administration 1",
			"end": "2024-03-01",
			"information": "<![CDATA[ <p><a href=https://sundsvall.se/utbildning-och-forskola/vuxenutbildning/gymnasial--niva/studieformer-och-schema target=_blank>Läs&nbsp;om våra studieformer<\/a><\/p><p><br /><a href=https://www.csn.se/ target=_blank>Läs om studiemedel på&nbsp;www.csn.se<\/a><br />&nbsp;<br />Ditt antagningsbesked<br />Antagningsbesked skickas via e-post cirka två veckor före kursstart.&nbsp;<a href=https://sundsvall.alvis.se/>Se ditt antagningsbesked och följ din ansökan via Mina sidor<\/a>.<\/p> ]]>",
			"id": 3,
			"subjectCode": "ADMADM01"
		},
		{
			"code": "ADMADM02",
			"level": "gymnasial vuxenutbildning",
			"start": "2023-10-16",
			"earliestApplication": "2023-04-01",
			"latestApplication": "2023-09-17",
			"studyLocation": "Sundsvall",
			"providerUrl": "http://sundsvall.se/vuxenutbildning",
			"url": "https://sundsvall.alvis.se/hittakurser/kurs/38770",
			"provider": "Sundsvalls Kommun",
			"credits": 100,
			"scope": 25,
			"name": "Administration 2",
			"end": "2024-03-01",
			"information": "<![CDATA[ <p><a href=https://sundsvall.se/utbildning-och-forskola/vuxenutbildning/gymnasial--niva/studieformer-och-schema target=_blank>Läs&nbsp;om våra studieformer<\/a><\/p><p><br /><a href=https://www.csn.se/ target=_blank>Läs om studiemedel på&nbsp;www.csn.se<\/a><br />&nbsp;<br />Ditt antagningsbesked<br />Antagningsbesked skickas via e-post cirka två veckor före kursstart.&nbsp;<a href=https://sundsvall.alvis.se/>Se ditt antagningsbesked och följ din ansökan via Mina sidor<\/a>.<\/p> ]]>",
			"id": 6,
			"subjectCode": "ADMADM02"
		},
		{
			"code": "ADMADM00S",
			"level": "gymnasial vuxenutbildning",
			"start": "2023-10-16",
			"earliestApplication": "2023-04-01",
			"latestApplication": "2023-09-17",
			"studyLocation": "Sundsvall",
			"providerUrl": "http://sundsvall.se/vuxenutbildning",
			"url": "https://sundsvall.alvis.se/hittakurser/kurs/38772",
			"provider": "Sundsvalls Kommun",
			"credits": 100,
			"scope": 25,
			"name": "Administration specialisering",
			"end": "2024-03-01",
			"information": "<![CDATA[ <p><a href=https://sundsvall.se/utbildning-och-forskola/vuxenutbildning/gymnasial--niva/studieformer-och-schema target=_blank>Läs&nbsp;om våra studieformer<\/a><\/p><p><br /><a href=https://www.csn.se/ target=_blank>Läs om studiemedel på&nbsp;www.csn.se<\/a><br />&nbsp;<br />Ditt antagningsbesked<br />Antagningsbesked skickas via e-post cirka två veckor före kursstart.&nbsp;<a href=https://sundsvall.alvis.se/>Se ditt antagningsbesked och följ din ansökan via Mina sidor<\/a>.<\/p> ]]>",
			"id": 9,
			"subjectCode": "ADMADM00S"
		},
		{
			"code": "ADMPER0",
			"level": "gymnasial vuxenutbildning",
			"start": "2023-10-16",
			"earliestApplication": "2023-04-01",
			"latestApplication": "2023-09-17",
			"studyLocation": "Sundsvall",
			"providerUrl": "http://sundsvall.se/vuxenutbildning",
			"url": "https://sundsvall.alvis.se/hittakurser/kurs/38831",
			"provider": "Sundsvalls Kommun",
			"credits": 100,
			"scope": 25,
			"name": "Personaladministration",
			"end": "2024-03-01",
			"information": "<![CDATA[ <p><a href=https://sundsvall.se/utbildning-och-forskola/vuxenutbildning/gymnasial--niva/studieformer-och-schema target=_blank>Läs&nbsp;om våra studieformer<\/a><\/p><p><br /><a href=https://www.csn.se/ target=_blank>Läs om studiemedel på&nbsp;www.csn.se<\/a><br />&nbsp;<br />Ditt antagningsbesked<br />Antagningsbesked skickas via e-post cirka två veckor före kursstart.&nbsp;<a href=https://sundsvall.alvis.se/>Se ditt antagningsbesked och följ din ansökan via Mina sidor<\/a>.<\/p> ]]>",
			"id": 12,
			"subjectCode": "ADMPER0"
		},
		{
			"code": "ADMREC0",
			"level": "gymnasial vuxenutbildning",
			"start": "2023-10-16",
			"earliestApplication": "2023-04-01",
			"latestApplication": "2023-09-17",
			"studyLocation": "Sundsvall",
			"providerUrl": "http://sundsvall.se/vuxenutbildning",
			"url": "https://sundsvall.alvis.se/hittakurser/kurs/38838",
			"provider": "Sundsvalls Kommun",
			"credits": 100,
			"scope": 25,
			"name": "Receptions- och konferensservice",
			"end": "2024-03-01",
			"information": "<![CDATA[ <p><a href=https://sundsvall.se/utbildning-och-forskola/vuxenutbildning/gymnasial--niva/studieformer-och-schema target=_blank>Läs&nbsp;om våra studieformer<\/a><\/p><p><br /><a href=https://www.csn.se/ target=_blank>Läs om studiemedel på&nbsp;www.csn.se<\/a><br />&nbsp;<br />Ditt antagningsbesked<br />Antagningsbesked skickas via e-post cirka två veckor före kursstart.&nbsp;<a href=https://sundsvall.alvis.se/>Se ditt antagningsbesked och följ din ansökan via Mina sidor<\/a>.<\/p> ]]>",
			"id": 15,
			"subjectCode": "ADMREC0"
		},
		{
			"code": "JURAFF0",
			"level": "gymnasial vuxenutbildning",
			"start": "2023-10-16",
			"earliestApplication": "2023-04-01",
			"latestApplication": "2023-09-17",
			"studyLocation": "Sundsvall",
			"providerUrl": "http://sundsvall.se/vuxenutbildning",
			"url": "https://sundsvall.alvis.se/hittakurser/kurs/38773",
			"provider": "Sundsvalls Kommun",
			"credits": 100,
			"scope": 25,
			"name": "Affärsjuridik",
			"end": "2024-03-01",
			"information": "<![CDATA[ <p><a href=https://sundsvall.se/utbildning-och-forskola/vuxenutbildning/gymnasial--niva/studieformer-och-schema target=_blank>Läs&nbsp;om våra studieformer<\/a><\/p><p><br /><a href=https://www.csn.se/ target=_blank>Läs om studiemedel på&nbsp;www.csn.se<\/a><br />&nbsp;<br />Ditt antagningsbesked<br />Antagningsbesked skickas via e-post cirka två veckor före kursstart.&nbsp;<a href=https://sundsvall.alvis.se/>Se ditt antagningsbesked och följ din ansökan via Mina sidor<\/a>.<\/p> ]]>",
			"id": 18,
			"subjectCode": "JURAFF0"
		},
		{
			"code": "AFFAFÄ00S",
			"level": "gymnasial vuxenutbildning",
			"start": "2023-10-16",
			"earliestApplication": "2023-04-01",
			"latestApplication": "2023-09-17",
			"studyLocation": "Sundsvall",
			"providerUrl": "http://sundsvall.se/vuxenutbildning",
			"url": "https://sundsvall.alvis.se/hittakurser/kurs/38774",
			"provider": "Sundsvalls Kommun",
			"credits": 100,
			"scope": 25,
			"name": "Affärskommunikation",
			"end": "2024-03-01",
			"information": "<![CDATA[ <p><a href=https://sundsvall.se/utbildning-och-forskola/vuxenutbildning/gymnasial--niva/studieformer-och-schema target=_blank>Läs&nbsp;om våra studieformer<\/a><\/p><p><br /><a href=https://www.csn.se/ target=_blank>Läs om studiemedel på&nbsp;www.csn.se<\/a><br />&nbsp;<br />Ditt antagningsbesked<br />Antagningsbesked skickas via e-post cirka två veckor före kursstart.&nbsp;<a href=https://sundsvall.alvis.se/>Se ditt antagningsbesked och följ din ansökan via Mina sidor<\/a>.<\/p> ]]>",
			"id": 21,
			"subjectCode": "AFFAFÄ00S"
		},
		{
			"code": "PEDAKI00S",
			"level": "gymnasial vuxenutbildning",
			"start": "2023-10-16",
			"earliestApplication": "2023-04-01",
			"latestApplication": "2023-09-17",
			"studyLocation": "Sundsvall",
			"providerUrl": "http://sundsvall.se/vuxenutbildning",
			"url": "https://sundsvall.alvis.se/hittakurser/kurs/68178",
			"provider": "Sundsvalls Kommun",
			"credits": 100,
			"scope": 25,
			"name": "Aktivitetsledarskap",
			"end": "2024-03-01",
			"information": "<![CDATA[ <p><a href=https://sundsvall.se/utbildning-och-forskola/vuxenutbildning/gymnasial--niva/studieformer-och-schema target=_blank>Läs&nbsp;om våra studieformer<\/a><\/p><p><br /><a href=https://www.csn.se/ target=_blank>Läs om studiemedel på&nbsp;www.csn.se<\/a><br />&nbsp;<br />Ditt antagningsbesked<br />Antagningsbesked skickas via e-post cirka två veckor före kursstart.&nbsp;<a href=https://sundsvall.alvis.se/>Se ditt antagningsbesked och följ din ansökan via Mina sidor<\/a>.<\/p> ]]>",
			"id": 24,
			"subjectCode": "PEDAKI00S"
		},
		{
			"code": "ARKARK0",
			"level": "gymnasial vuxenutbildning",
			"start": "2023-10-16",
			"earliestApplication": "2023-04-01",
			"latestApplication": "2023-09-17",
			"studyLocation": "Sundsvall",
			"providerUrl": "http://sundsvall.se/vuxenutbildning",
			"url": "https://sundsvall.alvis.se/hittakurser/kurs/38687",
			"provider": "Sundsvalls Kommun",
			"credits": 100,
			"scope": 25,
			"name": "Arkitektur hus",
			"end": "2024-03-01",
			"information": "<![CDATA[ <p><a href=https://sundsvall.se/utbildning-och-forskola/vuxenutbildning/gymnasial--niva/studieformer-och-schema target=_blank>Läs&nbsp;om våra studieformer<\/a><\/p><p><br /><a href=https://www.csn.se/ target=_blank>Läs om studiemedel på&nbsp;www.csn.se<\/a><br />&nbsp;<br />Ditt antagningsbesked<br />Antagningsbesked skickas via e-post cirka två veckor före kursstart.&nbsp;<a href=https://sundsvall.alvis.se/>Se ditt antagningsbesked och följ din ansökan via Mina sidor<\/a>.<\/p> ]]>",
			"id": 29,
			"subjectCode": "ARKARK0"
		},
		{
			"code": "ARKARI0",
			"level": "gymnasial vuxenutbildning",
			"start": "2023-10-16",
			"earliestApplication": "2023-04-01",
			"latestApplication": "2023-09-17",
			"studyLocation": "Sundsvall",
			"providerUrl": "http://sundsvall.se/vuxenutbildning",
			"url": "https://sundsvall.alvis.se/hittakurser/kurs/38775",
			"provider": "Sundsvalls Kommun",
			"credits": 100,
			"scope": 25,
			"name": "Arkitektur rum",
			"end": "2024-03-01",
			"information": "<![CDATA[ <p><a href=https://sundsvall.se/utbildning-och-forskola/vuxenutbildning/gymnasial--niva/studieformer-och-schema target=_blank>Läs&nbsp;om våra studieformer<\/a><\/p><p><br /><a href=https://www.csn.se/ target=_blank>Läs om studiemedel på&nbsp;www.csn.se<\/a><br />&nbsp;<br />Ditt antagningsbesked<br />Antagningsbesked skickas via e-post cirka två veckor före kursstart.&nbsp;<a href=https://sundsvall.alvis.se/>Se ditt antagningsbesked och följ din ansökan via Mina sidor<\/a>.<\/p> ]]>",
			"id": 30,
			"subjectCode": "ARKARI0"
		},
		{
			"code": "PEDBAS0",
			"level": "gymnasial vuxenutbildning",
			"start": "2023-10-16",
			"earliestApplication": "2023-04-01",
			"latestApplication": "2023-09-17",
			"studyLocation": "Sundsvall",
			"providerUrl": "http://sundsvall.se/vuxenutbildning",
			"url": "https://sundsvall.alvis.se/hittakurser/kurs/38776",
			"provider": "Sundsvalls Kommun",
			"credits": 100,
			"scope": 25,
			"name": "Barns lärande och växande",
			"end": "2024-03-01",
			"information": "<![CDATA[ <p><a href=https://sundsvall.se/utbildning-och-forskola/vuxenutbildning/gymnasial--niva/studieformer-och-schema target=_blank>Läs&nbsp;om våra studieformer<\/a><\/p><p><br /><a href=https://www.csn.se/ target=_blank>Läs om studiemedel på&nbsp;www.csn.se<\/a><br />&nbsp;<br />Ditt antagningsbesked<br />Antagningsbesked skickas via e-post cirka två veckor före kursstart.&nbsp;<a href=https://sundsvall.alvis.se/>Se ditt antagningsbesked och följ din ansökan via Mina sidor<\/a>.<\/p> ]]>",
			"id": 33,
			"subjectCode": "PEDBAS0"
		},
		{
			"code": "AKTBEO0",
			"level": "gymnasial vuxenutbildning",
			"start": "2023-10-16",
			"earliestApplication": "2023-04-01",
			"latestApplication": "2023-09-17",
			"studyLocation": "Sundsvall",
			"providerUrl": "http://sundsvall.se/vuxenutbildning",
			"url": "https://sundsvall.alvis.se/hittakurser/kurs/68180",
			"provider": "Sundsvalls Kommun",
			"credits": 100,
			"scope": 25,
			"name": "Besöksnäringen",
			"end": "2024-03-01",
			"information": "<![CDATA[ <p><a href=https://sundsvall.se/utbildning-och-forskola/vuxenutbildning/gymnasial--niva/studieformer-och-schema target=_blank>Läs&nbsp;om våra studieformer<\/a><\/p><p><br /><a href=https://www.csn.se/ target=_blank>Läs om studiemedel på&nbsp;www.csn.se<\/a><br />&nbsp;<br />Ditt antagningsbesked<br />Antagningsbesked skickas via e-post cirka två veckor före kursstart.&nbsp;<a href=https://sundsvall.alvis.se/>Se ditt antagningsbesked och följ din ansökan via Mina sidor<\/a>.<\/p> ]]>",
			"id": 36,
			"subjectCode": "AKTBEO0"
		},
		{
			"code": "BIOBIO01",
			"level": "gymnasial vuxenutbildning",
			"start": "2023-10-16",
			"earliestApplication": "2023-04-01",
			"latestApplication": "2023-09-17",
			"studyLocation": "Sundsvall",
			"providerUrl": "http://sundsvall.se/vuxenutbildning",
			"url": "https://sundsvall.alvis.se/hittakurser/kurs/38777",
			"provider": "Sundsvalls Kommun",
			"credits": 100,
			"scope": 25,
			"name": "Biologi 1",
			"end": "2024-03-01",
			"information": "<![CDATA[ <p><a href=https://sundsvall.se/utbildning-och-forskola/vuxenutbildning/gymnasial--niva/studieformer-och-schema target=_blank>Läs&nbsp;om våra studieformer<\/a><\/p><p><br /><a href=https://www.csn.se/ target=_blank>Läs om studiemedel på&nbsp;www.csn.se<\/a><br />&nbsp;<br />Ditt antagningsbesked<br />Antagningsbesked skickas via e-post cirka två veckor före kursstart.&nbsp;<a href=https://sundsvall.alvis.se/>Se ditt antagningsbesked och följ din ansökan via Mina sidor<\/a>.<\/p> ]]>",
			"id": 41,
			"subjectCode": "BIOBIO01"
		},
		{
			"code": "BIOBIO02",
			"level": "gymnasial vuxenutbildning",
			"start": "2023-10-16",
			"earliestApplication": "2023-04-01",
			"latestApplication": "2023-09-17",
			"studyLocation": "Sundsvall",
			"providerUrl": "http://sundsvall.se/vuxenutbildning",
			"url": "https://sundsvall.alvis.se/hittakurser/kurs/38778",
			"provider": "Sundsvalls Kommun",
			"credits": 100,
			"scope": 25,
			"name": "Biologi 2",
			"end": "2024-03-01",
			"information": "<![CDATA[ <p><a href=https://sundsvall.se/utbildning-och-forskola/vuxenutbildning/gymnasial--niva/studieformer-och-schema target=_blank>Läs&nbsp;om våra studieformer<\/a><\/p><p><br /><a href=https://www.csn.se/ target=_blank>Läs om studiemedel på&nbsp;www.csn.se<\/a><br />&nbsp;<br />Ditt antagningsbesked<br />Antagningsbesked skickas via e-post cirka två veckor före kursstart.&nbsp;<a href=https://sundsvall.alvis.se/>Se ditt antagningsbesked och följ din ansökan via Mina sidor<\/a>.<\/p> ]]>",
			"id": 42,
			"subjectCode": "BIOBIO02"
		},
		{
			"code": "DAODAT01a",
			"level": "gymnasial vuxenutbildning",
			"start": "2023-10-16",
			"earliestApplication": "2023-04-01",
			"latestApplication": "2023-09-17",
			"studyLocation": "Sundsvall",
			"providerUrl": "http://sundsvall.se/vuxenutbildning",
			"url": "https://sundsvall.alvis.se/hittakurser/kurs/38780",
			"provider": "Sundsvalls Kommun",
			"credits": 100,
			"scope": 25,
			"name": "Datorteknik 1a",
			"end": "2024-03-01",
			"information": "<![CDATA[ <p><a href=https://sundsvall.se/utbildning-och-forskola/vuxenutbildning/gymnasial--niva/studieformer-och-schema target=_blank>Läs&nbsp;om våra studieformer<\/a><\/p><p><br /><a href=https://www.csn.se/ target=_blank>Läs om studiemedel på&nbsp;www.csn.se<\/a><br />&nbsp;<br />Ditt antagningsbesked<br />Antagningsbesked skickas via e-post cirka två veckor före kursstart.&nbsp;<a href=https://sundsvall.alvis.se/>Se ditt antagningsbesked och följ din ansökan via Mina sidor<\/a>.<\/p> ]]>",
			"id": 51,
			"subjectCode": "DAODAT01a"
		},
		{
			"code": "DAODAT01b",
			"level": "gymnasial vuxenutbildning",
			"start": "2023-10-16",
			"earliestApplication": "2023-04-01",
			"latestApplication": "2023-09-17",
			"studyLocation": "Sundsvall",
			"providerUrl": "http://sundsvall.se/vuxenutbildning",
			"url": "https://sundsvall.alvis.se/hittakurser/kurs/38781",
			"provider": "Sundsvalls Kommun",
			"credits": 100,
			"scope": 25,
			"name": "Datorteknik 1b",
			"end": "2024-03-01",
			"information": "<![CDATA[ <p><a href=https://sundsvall.se/utbildning-och-forskola/vuxenutbildning/gymnasial--niva/studieformer-och-schema target=_blank>Läs&nbsp;om våra studieformer<\/a><\/p><p><br /><a href=https://www.csn.se/ target=_blank>Läs om studiemedel på&nbsp;www.csn.se<\/a><br />&nbsp;<br />Ditt antagningsbesked<br />Antagningsbesked skickas via e-post cirka två veckor före kursstart.&nbsp;<a href=https://sundsvall.alvis.se/>Se ditt antagningsbesked och följ din ansökan via Mina sidor<\/a>.<\/p> ]]>",
			"id": 52,
			"subjectCode": "DAODAT01b"
		},
		{
			"code": "DAODAC0",
			"level": "gymnasial vuxenutbildning",
			"start": "2023-10-16",
			"earliestApplication": "2023-04-01",
			"latestApplication": "2023-09-17",
			"studyLocation": "Sundsvall",
			"providerUrl": "http://sundsvall.se/vuxenutbildning",
			"url": "https://sundsvall.alvis.se/hittakurser/kurs/38782",
			"provider": "Sundsvalls Kommun",
			"credits": 100,
			"scope": 25,
			"name": "Dator- och nätverksteknik",
			"end": "2024-03-01",
			"information": "<![CDATA[ <p><a href=https://sundsvall.se/utbildning-och-forskola/vuxenutbildning/gymnasial--niva/studieformer-och-schema target=_blank>Läs&nbsp;om våra studieformer<\/a><\/p><p><br /><a href=https://www.csn.se/ target=_blank>Läs om studiemedel på&nbsp;www.csn.se<\/a><br />&nbsp;<br />Ditt antagningsbesked<br />Antagningsbesked skickas via e-post cirka två veckor före kursstart.&nbsp;<a href=https://sundsvall.alvis.se/>Se ditt antagningsbesked och följ din ansökan via Mina sidor<\/a>.<\/p> ]]>",
			"id": 53,
			"subjectCode": "DAODAC0"
		},
		{
			"code": "DAODIG0",
			"level": "gymnasial vuxenutbildning",
			"start": "2023-10-16",
			"earliestApplication": "2023-04-01",
			"latestApplication": "2023-09-17",
			"studyLocation": "Sundsvall",
			"providerUrl": "http://sundsvall.se/vuxenutbildning",
			"url": "https://sundsvall.alvis.se/hittakurser/kurs/68181",
			"provider": "Sundsvalls Kommun",
			"credits": 100,
			"scope": 25,
			"name": "Digital kommunikationsteknik",
			"end": "2024-03-01",
			"information": "<![CDATA[ <p><a href=https://sundsvall.se/utbildning-och-forskola/vuxenutbildning/gymnasial--niva/studieformer-och-schema target=_blank>Läs&nbsp;om våra studieformer<\/a><\/p><p><br /><a href=https://www.csn.se/ target=_blank>Läs om studiemedel på&nbsp;www.csn.se<\/a><br />&nbsp;<br />Ditt antagningsbesked<br />Antagningsbesked skickas via e-post cirka två veckor före kursstart.&nbsp;<a href=https://sundsvall.alvis.se/>Se ditt antagningsbesked och följ din ansökan via Mina sidor<\/a>.<\/p> ]]>",
			"id": 54,
			"subjectCode": "DAODIG0"
		},
		{
			"code": "DIGDIG01",
			"level": "gymnasial vuxenutbildning",
			"start": "2023-10-16",
			"earliestApplication": "2023-04-01",
			"latestApplication": "2023-09-17",
			"studyLocation": "Sundsvall",
			"providerUrl": "http://sundsvall.se/vuxenutbildning",
			"url": "https://sundsvall.alvis.se/hittakurser/kurs/38783",
			"provider": "Sundsvalls Kommun",
			"credits": 100,
			"scope": 25,
			"name": "Digitalt skapande 1",
			"end": "2024-03-01",
			"information": "<![CDATA[ <p><a href=https://sundsvall.se/utbildning-och-forskola/vuxenutbildning/gymnasial--niva/studieformer-och-schema target=_blank>Läs&nbsp;om våra studieformer<\/a><\/p><p><br /><a href=https://www.csn.se/ target=_blank>Läs om studiemedel på&nbsp;www.csn.se<\/a><br />&nbsp;<br />Ditt antagningsbesked<br />Antagningsbesked skickas via e-post cirka två veckor före kursstart.&nbsp;<a href=https://sundsvall.alvis.se/>Se ditt antagningsbesked och följ din ansökan via Mina sidor<\/a>.<\/p> ]]>",
			"id": 59,
			"subjectCode": "DIGDIG01"
		},
		{
			"code": "DIGDIG02",
			"level": "gymnasial vuxenutbildning",
			"start": "2023-10-16",
			"earliestApplication": "2023-04-01",
			"latestApplication": "2023-09-17",
			"studyLocation": "Sundsvall",
			"providerUrl": "http://sundsvall.se/vuxenutbildning",
			"url": "https://sundsvall.alvis.se/hittakurser/kurs/38784",
			"provider": "Sundsvalls Kommun",
			"credits": 100,
			"scope": 25,
			"name": "Digitalt skapande 2",
			"end": "2024-03-01",
			"information": "<![CDATA[ <p><a href=https://sundsvall.se/utbildning-och-forskola/vuxenutbildning/gymnasial--niva/studieformer-och-schema target=_blank>Läs&nbsp;om våra studieformer<\/a><\/p><p><br /><a href=https://www.csn.se/ target=_blank>Läs om studiemedel på&nbsp;www.csn.se<\/a><br />&nbsp;<br />Ditt antagningsbesked<br />Antagningsbesked skickas via e-post cirka två veckor före kursstart.&nbsp;<a href=https://sundsvall.alvis.se/>Se ditt antagningsbesked och följ din ansökan via Mina sidor<\/a>.<\/p> ]]>",
			"id": 60,
			"subjectCode": "DIGDIG02"
		}
	],
	"_meta": {
		"totalRecords": 257,
		"limit": 20,
		"count": 20,
		"totalPages": 13,
		"page": 0
	}
}
