{
	"courses": [
		{
			"id": 2000,
			"code": "Okänd",
			"name": "Okänd",
			"provider": "Härnösands folkhögskola",
			"providerUrl": "https://hfs.se/",
			"scope": 100.0,
			"studyLocation": "Härnösand",
			"languageOfInstruction": "swe",
			"start": "2023-08-21",
			"end": "2024-05-31"
		},
		{
			"id": 2001,
			"code": "Okänd",
			"name": "Okänd",
			"provider": "Härnösands folkhögskola",
			"providerUrl": "https://hfs.se/",
			"scope": 100.0,
			"studyLocation": "Härnösand",
			"languageOfInstruction": "swe",
			"start": "2023-08-21",
			"end": "2024-06-07"
		},
		{
			"id": 2002,
			"code": "Okänd",
			"name": "Okänd",
			"provider": "Härnösands folkhögskola",
			"providerUrl": "https://hfs.se/",
			"scope": 50.0,
			"studyLocation": "Härnösand",
			"languageOfInstruction": "swe",
			"start": "2023-08-28",
			"end": "2024-01-14"
		},
		{
			"id": 2003,
			"code": "Okänd",
			"name": "Okänd",
			"provider": "Härnösands folkhögskola",
			"providerUrl": "https://hfs.se/",
			"scope": 100.0,
			"studyLocation": "Härnösand",
			"languageOfInstruction": "swe",
			"start": "2023-08-14",
			"end": "2024-06-07"
		},
		{
			"id": 2004,
			"code": "Okänd",
			"name": "Okänd",
			"provider": "Härnösands folkhögskola",
			"providerUrl": "https://hfs.se/",
			"scope": 100.0,
			"studyLocation": "Härnösand",
			"languageOfInstruction": "swe",
			"start": "2023-08-28",
			"end": "2024-06-14"
		}
	],
	"_meta": {
		"page": 0,
		"limit": 5,
		"count": 5,
		"totalRecords": 33,
		"totalPages": 7
	}
}