{
	"courses": [
		{
			"id": 1168,
			"code": "GRNFYS2",
			"name": "Fysik",
			"provider": "Sundsvalls Kommun",
			"providerUrl": "http://sundsvall.se/vuxenutbildning",
			"level": "grundläggande vuxenutbildning",
			"url": "https://sundsvall.alvis.se/hittakurser/kurs/39036",
			"credits": 150.0,
			"scope": 100.0,
			"studyLocation": "Sundsvall",
			"subjectCode": "GRNFYS2",
			"category": "Naturvetenskap",
			"subcategory": "Fysik",
			"start": "2023-10-16",
			"end": "2023-12-01",
			"earliestApplication": "2023-04-01",
			"latestApplication": "2023-09-17",
			"information": "<![CDATA[ <p><a href=https://sundsvall.se/utbildning-och-forskola/vuxenutbildning/gymnasial--niva/studieformer-och-schema target=_blank>Läs&nbsp;om våra studieformer</a></p><p><br /><a href=https://www.csn.se/ target=_blank>Läs om studiemedel på&nbsp;www.csn.se</a><br />&nbsp;<br />Ditt antagningsbesked<br />Antagningsbesked skickas via e-post cirka två veckor före kursstart.&nbsp;<a href=https://sundsvall.alvis.se/>Se ditt antagningsbesked och följ din ansökan via Mina sidor</a>.</p> ]]>"
		},
		{
			"id": 1175,
			"code": "GRNFYS2",
			"name": "Fysik",
			"provider": "Sundsvalls Kommun",
			"providerUrl": "http://sundsvall.se/vuxenutbildning",
			"level": "grundläggande vuxenutbildning",
			"url": "https://sundsvall.alvis.se/hittakurser/kurs/39036",
			"credits": 150.0,
			"scope": 75.0,
			"studyLocation": "Sundsvall",
			"subjectCode": "GRNFYS2",
			"category": "Naturvetenskap",
			"subcategory": "Fysik",
			"start": "2023-10-16",
			"end": "2023-12-22",
			"earliestApplication": "2023-04-01",
			"latestApplication": "2023-09-17",
			"information": "<![CDATA[ <p><a href=https://sundsvall.se/utbildning-och-forskola/vuxenutbildning/gymnasial--niva/studieformer-och-schema target=_blank>Läs&nbsp;om våra studieformer</a></p><p><br /><a href=https://www.csn.se/ target=_blank>Läs om studiemedel på&nbsp;www.csn.se</a><br />&nbsp;<br />Ditt antagningsbesked<br />Antagningsbesked skickas via e-post cirka två veckor före kursstart.&nbsp;<a href=https://sundsvall.alvis.se/>Se ditt antagningsbesked och följ din ansökan via Mina sidor</a>.</p> ]]>"
		},
		{
			"id": 1203,
			"code": "GRNFYS2",
			"name": "Fysik",
			"provider": "Sundsvalls Kommun",
			"providerUrl": "http://sundsvall.se/vuxenutbildning",
			"level": "grundläggande vuxenutbildning",
			"url": "https://sundsvall.alvis.se/hittakurser/kurs/39036",
			"credits": 150.0,
			"scope": 50.0,
			"studyLocation": "Sundsvall",
			"subjectCode": "GRNFYS2",
			"category": "Naturvetenskap",
			"subcategory": "Fysik",
			"start": "2023-10-16",
			"end": "2024-01-26",
			"earliestApplication": "2023-04-01",
			"latestApplication": "2023-09-17",
			"information": "<![CDATA[ <p><a href=https://sundsvall.se/utbildning-och-forskola/vuxenutbildning/gymnasial--niva/studieformer-och-schema target=_blank>Läs&nbsp;om våra studieformer</a></p><p><br /><a href=https://www.csn.se/ target=_blank>Läs om studiemedel på&nbsp;www.csn.se</a><br />&nbsp;<br />Ditt antagningsbesked<br />Antagningsbesked skickas via e-post cirka två veckor före kursstart.&nbsp;<a href=https://sundsvall.alvis.se/>Se ditt antagningsbesked och följ din ansökan via Mina sidor</a>.</p> ]]>"
		},
		{
			"id": 1210,
			"code": "GRNFYS2",
			"name": "Fysik",
			"provider": "Sundsvalls Kommun",
			"providerUrl": "http://sundsvall.se/vuxenutbildning",
			"level": "grundläggande vuxenutbildning",
			"url": "https://sundsvall.alvis.se/hittakurser/kurs/39036",
			"credits": 150.0,
			"scope": 25.0,
			"studyLocation": "Sundsvall",
			"subjectCode": "GRNFYS2",
			"category": "Naturvetenskap",
			"subcategory": "Fysik",
			"start": "2023-10-16",
			"end": "2024-05-10",
			"earliestApplication": "2023-04-01",
			"latestApplication": "2023-09-17",
			"information": "<![CDATA[ <p><a href=https://sundsvall.se/utbildning-och-forskola/vuxenutbildning/gymnasial--niva/studieformer-och-schema target=_blank>Läs&nbsp;om våra studieformer</a></p><p><br /><a href=https://www.csn.se/ target=_blank>Läs om studiemedel på&nbsp;www.csn.se</a><br />&nbsp;<br />Ditt antagningsbesked<br />Antagningsbesked skickas via e-post cirka två veckor före kursstart.&nbsp;<a href=https://sundsvall.alvis.se/>Se ditt antagningsbesked och följ din ansökan via Mina sidor</a>.</p> ]]>"
		},
		{
			"id": 1259,
			"code": "NAKNAK01a2",
			"name": "Naturkunskap 1a2 10v",
			"provider": "Sundsvalls Kommun",
			"providerUrl": "http://sundsvall.se/vuxenutbildning",
			"level": "gymnasial vuxenutbildning",
			"url": "https://sundsvall.alvis.se/hittakurser/kurs/15089",
			"credits": 50.0,
			"scope": 25.0,
			"studyLocation": "Sundsvall",
			"subjectCode": "NAKNAK01a2",
			"category": "Naturvetenskap",
			"subcategory": "Fysik",
			"start": "2023-10-16",
			"end": "2023-12-22",
			"earliestApplication": "2023-04-01",
			"latestApplication": "2023-09-17",
			"information": "<![CDATA[ <p><a href=https://sundsvall.se/utbildning-och-forskola/vuxenutbildning/gymnasial--niva/studieformer-och-schema target=_blank>Läs&nbsp;om våra studieformer</a></p><p><br /><a href=https://www.csn.se/ target=_blank>Läs om studiemedel på&nbsp;www.csn.se</a><br />&nbsp;<br />Ditt antagningsbesked<br />Antagningsbesked skickas via e-post cirka två veckor före kursstart.&nbsp;<a href=https://sundsvall.alvis.se/>Se ditt antagningsbesked och följ din ansökan via Mina sidor</a>.</p> ]]>"
		}
	],
	"_meta": {
		"page": 0,
		"limit": 5,
		"count": 5,
		"totalRecords": 15,
		"totalPages": 3
	}
}