{
	"courses": [
		{
			"code": "YH01812",
			"level": "yrkeshögskoleutbildning",
			"start": "2023-08-14",
			"latestApplication": "2023-03-29",
			"studyLocation": "Sundsvall",
			"providerUrl": "https://yh.se",
			"url": "https://yh.se/utbildningar/tandskoterska/",
			"provider": "YH Akademin AB",
			"credits": 325,
			"scope": 100,
			"name": "Tandsköterska",
			"end": "2024-12-20",
			"information": "Som tandsköterska har du stort ansvar för klinikens hygien och smittskydd, administrativa uppgifter samt receptionsarbete. I yrkesrollen ingår t.ex.  att ha egna patienter, ge munhygien och tandhälso-information, utföra profylax, tandhälsokontroller, avtryckstagning samt fluorbehandling. Tandsköterskan förbereder även behandling, blandar material och sterilisera instrument.Tandläkare kan även delegera uppgifter till tandsköterskan, som t.ex. att ge lokalbedövning, ta röntgenbilder och göra enklare fyllningar. Tandsköterska är ett serviceyrke med mycket patientkontakt vilket innebär att bemötandet är viktigt samt att du ska inge trygghet och tillit.Jobbmöjligheter Det är stor efterfrågan på tandsköterskor. En stor andel pensionsavgångar samt framtidens krav på välutbildad personal inom tandvården lägger grunden för rekryteringsbehovet. Utbildningen är skräddarsydd för att tillgodose branschens behov av kompetenta tandsköterskor och efter utbildningen har du de kunskaper och färdigheter som efterfrågas. Föreläsningar varvas med Lärande i arbete, LIA.Ta ditt nästa karriärsteg hos oss på YH Akademin!",
			"id": 2208,
			"subjectCode": "415724e"
		},
		{
			"code": "YH01812",
			"level": "yrkeshögskoleutbildning",
			"start": "2023-08-14",
			"latestApplication": "2023-03-29",
			"studyLocation": "Helsingborg",
			"providerUrl": "https://yh.se",
			"url": "https://yh.se/utbildningar/tandskoterska/",
			"provider": "YH Akademin AB",
			"credits": 325,
			"scope": 100,
			"name": "Tandsköterska",
			"end": "2024-12-20",
			"information": "Som tandsköterska har du stort ansvar för klinikens hygien och smittskydd, administrativa uppgifter samt receptionsarbete. I yrkesrollen ingår t.ex.  att ha egna patienter, ge munhygien och tandhälso-information, utföra profylax, tandhälsokontroller, avtryckstagning samt fluorbehandling. Tandsköterskan förbereder även behandling, blandar material och sterilisera instrument.Tandläkare kan även delegera uppgifter till tandsköterskan, som t.ex. att ge lokalbedövning, ta röntgenbilder och göra enklare fyllningar. Tandsköterska är ett serviceyrke med mycket patientkontakt vilket innebär att bemötandet är viktigt samt att du ska inge trygghet och tillit.Jobbmöjligheter Det är stor efterfrågan på tandsköterskor. En stor andel pensionsavgångar samt framtidens krav på välutbildad personal inom tandvården lägger grunden för rekryteringsbehovet. Utbildningen är skräddarsydd för att tillgodose branschens behov av kompetenta tandsköterskor och efter utbildningen har du de kunskaper och färdigheter som efterfrågas. Föreläsningar varvas med Lärande i arbete, LIA.Ta ditt nästa karriärsteg hos oss på YH Akademin!",
			"id": 2209,
			"subjectCode": "415724e"
		},
		{
			"code": "YH01812",
			"level": "yrkeshögskoleutbildning",
			"start": "2024-08-05",
			"latestApplication": "2024-03-20",
			"studyLocation": "Sundsvall",
			"providerUrl": "https://yh.se",
			"url": "https://yh.se/utbildningar/tandskoterska/",
			"provider": "YH Akademin AB",
			"credits": 325,
			"scope": 100,
			"name": "Tandsköterska",
			"end": "2025-12-19",
			"information": "Som tandsköterska har du stort ansvar för klinikens hygien och smittskydd, administrativa uppgifter samt receptionsarbete. I yrkesrollen ingår t.ex.  att ha egna patienter, ge munhygien och tandhälso-information, utföra profylax, tandhälsokontroller, avtryckstagning samt fluorbehandling. Tandsköterskan förbereder även behandling, blandar material och sterilisera instrument.Tandläkare kan även delegera uppgifter till tandsköterskan, som t.ex. att ge lokalbedövning, ta röntgenbilder och göra enklare fyllningar. Tandsköterska är ett serviceyrke med mycket patientkontakt vilket innebär att bemötandet är viktigt samt att du ska inge trygghet och tillit.Jobbmöjligheter Det är stor efterfrågan på tandsköterskor. En stor andel pensionsavgångar samt framtidens krav på välutbildad personal inom tandvården lägger grunden för rekryteringsbehovet. Utbildningen är skräddarsydd för att tillgodose branschens behov av kompetenta tandsköterskor och efter utbildningen har du de kunskaper och färdigheter som efterfrågas. Föreläsningar varvas med Lärande i arbete, LIA.Ta ditt nästa karriärsteg hos oss på YH Akademin!",
			"id": 2210,
			"subjectCode": "415724e"
		},
		{
			"code": "YH01812",
			"level": "yrkeshögskoleutbildning",
			"start": "2024-08-05",
			"latestApplication": "2024-03-20",
			"studyLocation": "Helsingborg",
			"providerUrl": "https://yh.se",
			"url": "https://yh.se/utbildningar/tandskoterska/",
			"provider": "YH Akademin AB",
			"credits": 325,
			"scope": 100,
			"name": "Tandsköterska",
			"end": "2025-12-19",
			"information": "Som tandsköterska har du stort ansvar för klinikens hygien och smittskydd, administrativa uppgifter samt receptionsarbete. I yrkesrollen ingår t.ex.  att ha egna patienter, ge munhygien och tandhälso-information, utföra profylax, tandhälsokontroller, avtryckstagning samt fluorbehandling. Tandsköterskan förbereder även behandling, blandar material och sterilisera instrument.Tandläkare kan även delegera uppgifter till tandsköterskan, som t.ex. att ge lokalbedövning, ta röntgenbilder och göra enklare fyllningar. Tandsköterska är ett serviceyrke med mycket patientkontakt vilket innebär att bemötandet är viktigt samt att du ska inge trygghet och tillit.Jobbmöjligheter Det är stor efterfrågan på tandsköterskor. En stor andel pensionsavgångar samt framtidens krav på välutbildad personal inom tandvården lägger grunden för rekryteringsbehovet. Utbildningen är skräddarsydd för att tillgodose branschens behov av kompetenta tandsköterskor och efter utbildningen har du de kunskaper och färdigheter som efterfrågas. Föreläsningar varvas med Lärande i arbete, LIA.Ta ditt nästa karriärsteg hos oss på YH Akademin!",
			"id": 2211,
			"subjectCode": "415724e"
		},
		{
			"code": "YH01812",
			"level": "yrkeshögskoleutbildning",
			"start": "2025-08-01",
			"studyLocation": "Sundsvall",
			"providerUrl": "https://yh.se",
			"url": "https://yh.se/utbildningar/tandskoterska/",
			"provider": "YH Akademin AB",
			"credits": 325,
			"scope": 100,
			"name": "Tandsköterska",
			"end": "2026-12-31",
			"information": "Som tandsköterska har du stort ansvar för klinikens hygien och smittskydd, administrativa uppgifter samt receptionsarbete. I yrkesrollen ingår t.ex.  att ha egna patienter, ge munhygien och tandhälso-information, utföra profylax, tandhälsokontroller, avtryckstagning samt fluorbehandling. Tandsköterskan förbereder även behandling, blandar material och sterilisera instrument.Tandläkare kan även delegera uppgifter till tandsköterskan, som t.ex. att ge lokalbedövning, ta röntgenbilder och göra enklare fyllningar. Tandsköterska är ett serviceyrke med mycket patientkontakt vilket innebär att bemötandet är viktigt samt att du ska inge trygghet och tillit.Jobbmöjligheter Det är stor efterfrågan på tandsköterskor. En stor andel pensionsavgångar samt framtidens krav på välutbildad personal inom tandvården lägger grunden för rekryteringsbehovet. Utbildningen är skräddarsydd för att tillgodose branschens behov av kompetenta tandsköterskor och efter utbildningen har du de kunskaper och färdigheter som efterfrågas. Föreläsningar varvas med Lärande i arbete, LIA.Ta ditt nästa karriärsteg hos oss på YH Akademin!",
			"id": 2212,
			"subjectCode": "415724e"
		}
	],
	"_meta": {
		"totalRecords": 6,
		"limit": 5,
		"count": 5,
		"totalPages": 2,
		"page": 0
	}
}
