{
	"courses": [
		{
			"code": "HÅLMIJ0",
			"level": "gymnasial vuxenutbildning",
			"start": "2023-10-16",
			"earliestApplication": "2023-04-01",
			"latestApplication": "2023-09-17",
			"studyLocation": "Sundsvall",
			"providerUrl": "http://sundsvall.se/vuxenutbildning",
			"url": "https://sundsvall.alvis.se/hittakurser/kurs/68206",
			"provider": "Sundsvalls Kommun",
			"credits": 100,
			"scope": 100,
			"name": "Miljö- och energikunskap",
			"end": "2023-11-17",
			"information": "<![CDATA[ <p><a href=https://sundsvall.se/utbildning-och-forskola/vuxenutbildning/gymnasial--niva/studieformer-och-schema target=_blank>Läs&nbsp;om våra studieformer</a></p><p><br /><a href=https://www.csn.se/ target=_blank>Läs om studiemedel på&nbsp;www.csn.se</a><br />&nbsp;<br />Ditt antagningsbesked<br />Antagningsbesked skickas via e-post cirka två veckor före kursstart.&nbsp;<a href=https://sundsvall.alvis.se/>Se ditt antagningsbesked och följ din ansökan via Mina sidor</a>.</p> ]]>",
			"id": 825,
			"category": "Naturvetenskap",
			"subcategory": "Miljö",
			"subjectCode": "HÅLMIJ0"
		},
		{
			"code": "HÅLPOL0",
			"level": "gymnasial vuxenutbildning",
			"start": "2023-10-16",
			"earliestApplication": "2023-04-01",
			"latestApplication": "2023-09-17",
			"studyLocation": "Sundsvall",
			"providerUrl": "http://sundsvall.se/vuxenutbildning",
			"url": "https://sundsvall.alvis.se/hittakurser/kurs/38833",
			"provider": "Sundsvalls Kommun",
			"credits": 100,
			"scope": 100,
			"name": "Politik och hållbar utveckling",
			"end": "2023-11-17",
			"information": "<![CDATA[ <p><a href=https://sundsvall.se/utbildning-och-forskola/vuxenutbildning/gymnasial--niva/studieformer-och-schema target=_blank>Läs&nbsp;om våra studieformer</a></p><p><br /><a href=https://www.csn.se/ target=_blank>Läs om studiemedel på&nbsp;www.csn.se</a><br />&nbsp;<br />Ditt antagningsbesked<br />Antagningsbesked skickas via e-post cirka två veckor före kursstart.&nbsp;<a href=https://sundsvall.alvis.se/>Se ditt antagningsbesked och följ din ansökan via Mina sidor</a>.</p> ]]>",
			"id": 829,
			"category": "Naturvetenskap",
			"subcategory": "Miljö",
			"subjectCode": "HÅLPOL0"
		},
		{
			"code": "HÅLMIJ0",
			"level": "gymnasial vuxenutbildning",
			"start": "2023-10-16",
			"earliestApplication": "2023-04-01",
			"latestApplication": "2023-09-17",
			"studyLocation": "Sundsvall",
			"providerUrl": "http://sundsvall.se/vuxenutbildning",
			"url": "https://sundsvall.alvis.se/hittakurser/kurs/68206",
			"provider": "Sundsvalls Kommun",
			"credits": 100,
			"scope": 50,
			"name": "Miljö- och energikunskap",
			"end": "2023-12-22",
			"information": "<![CDATA[ <p><a href=https://sundsvall.se/utbildning-och-forskola/vuxenutbildning/gymnasial--niva/studieformer-och-schema target=_blank>Läs&nbsp;om våra studieformer</a></p><p><br /><a href=https://www.csn.se/ target=_blank>Läs om studiemedel på&nbsp;www.csn.se</a><br />&nbsp;<br />Ditt antagningsbesked<br />Antagningsbesked skickas via e-post cirka två veckor före kursstart.&nbsp;<a href=https://sundsvall.alvis.se/>Se ditt antagningsbesked och följ din ansökan via Mina sidor</a>.</p> ]]>",
			"id": 833,
			"category": "Naturvetenskap",
			"subcategory": "Miljö",
			"subjectCode": "HÅLMIJ0"
		},
		{
			"code": "HÅLPOL0",
			"level": "gymnasial vuxenutbildning",
			"start": "2023-10-16",
			"earliestApplication": "2023-04-01",
			"latestApplication": "2023-09-17",
			"studyLocation": "Sundsvall",
			"providerUrl": "http://sundsvall.se/vuxenutbildning",
			"url": "https://sundsvall.alvis.se/hittakurser/kurs/38833",
			"provider": "Sundsvalls Kommun",
			"credits": 100,
			"scope": 50,
			"name": "Politik och hållbar utveckling",
			"end": "2023-12-22",
			"information": "<![CDATA[ <p><a href=https://sundsvall.se/utbildning-och-forskola/vuxenutbildning/gymnasial--niva/studieformer-och-schema target=_blank>Läs&nbsp;om våra studieformer</a></p><p><br /><a href=https://www.csn.se/ target=_blank>Läs om studiemedel på&nbsp;www.csn.se</a><br />&nbsp;<br />Ditt antagningsbesked<br />Antagningsbesked skickas via e-post cirka två veckor före kursstart.&nbsp;<a href=https://sundsvall.alvis.se/>Se ditt antagningsbesked och följ din ansökan via Mina sidor</a>.</p> ]]>",
			"id": 837,
			"category": "Naturvetenskap",
			"subcategory": "Miljö",
			"subjectCode": "HÅLPOL0"
		},
		{
			"code": "HÅLMIJ0",
			"level": "gymnasial vuxenutbildning",
			"start": "2023-10-16",
			"earliestApplication": "2023-04-01",
			"latestApplication": "2023-09-17",
			"studyLocation": "Sundsvall",
			"providerUrl": "http://sundsvall.se/vuxenutbildning",
			"url": "https://sundsvall.alvis.se/hittakurser/kurs/68206",
			"provider": "Sundsvalls Kommun",
			"credits": 100,
			"scope": 25,
			"name": "Miljö- och energikunskap",
			"end": "2024-03-01",
			"information": "<![CDATA[ <p><a href=https://sundsvall.se/utbildning-och-forskola/vuxenutbildning/gymnasial--niva/studieformer-och-schema target=_blank>Läs&nbsp;om våra studieformer</a></p><p><br /><a href=https://www.csn.se/ target=_blank>Läs om studiemedel på&nbsp;www.csn.se</a><br />&nbsp;<br />Ditt antagningsbesked<br />Antagningsbesked skickas via e-post cirka två veckor före kursstart.&nbsp;<a href=https://sundsvall.alvis.se/>Se ditt antagningsbesked och följ din ansökan via Mina sidor</a>.</p> ]]>",
			"id": 841,
			"category": "Naturvetenskap",
			"subcategory": "Miljö",
			"subjectCode": "HÅLMIJ0"
		}
	],
	"_meta": {
		"totalRecords": 125,
		"limit": 5,
		"count": 5,
		"totalPages": 25,
		"page": 0
	}
}
