{
	"courses": [
		{
			"id": 2049,
			"code": "",
			"name": "Allmän kurs Ny i Sverige",
			"provider": "Mellansels folkhögskola",
			"providerUrl": "http://www.mfhs.se/",
			"level": "folkhögskola",
			"url": "https://www.mfhs.se/allman-kurs-sprak",
			"scope": 50.0,
			"studyLocation": "Mellansel",
			"subjectCode": "8",
			"languageOfInstruction": "swe",
			"start": "2024-01-08",
			"end": "2024-06-07",
			"information": "En introduktionskurs för dig som söker asyl i Sverige där du får lära dig svenska och få en ökad förståelse för det svenska samhället.&nbsp;Vi vänder oss till dig som bor i Örnsköldsviks kommun."
		},
		{
			"id": 2050,
			"code": "",
			"name": "Allmän kurs Ny i Sverige",
			"provider": "Mellansels folkhögskola",
			"providerUrl": "http://www.mfhs.se/",
			"level": "folkhögskola",
			"url": "https://www.mfhs.se/allman-kurs-sprak",
			"scope": 50.0,
			"studyLocation": "Mellansel",
			"subjectCode": "10",
			"languageOfInstruction": "swe",
			"start": "2024-01-08",
			"end": "2024-06-07",
			"information": "En introduktionskurs för dig som söker asyl i Sverige där du får lära dig svenska och få en ökad förståelse för det svenska samhället.&nbsp;Vi vänder oss till dig som bor i Örnsköldsviks kommun."
		},
		{
			"id": 2051,
			"code": "",
			"name": "Allmän kurs Ny i Sverige",
			"provider": "Mellansels folkhögskola",
			"providerUrl": "http://www.mfhs.se/",
			"level": "folkhögskola",
			"url": "https://www.mfhs.se/allman-kurs-sprak",
			"scope": 50.0,
			"studyLocation": "Mellansel",
			"subjectCode": "8",
			"languageOfInstruction": "swe",
			"start": "2024-01-08",
			"end": "2024-06-07",
			"information": "En introduktionskurs för dig som söker asyl i Sverige där du får lära dig svenska och få en ökad förståelse för det svenska samhället.&nbsp;Vi vänder oss till dig som bor i Örnsköldsviks kommun."
		},
		{
			"id": 2052,
			"code": "",
			"name": "Allmän kurs Ny i Sverige",
			"provider": "Mellansels folkhögskola",
			"providerUrl": "http://www.mfhs.se/",
			"level": "folkhögskola",
			"url": "https://www.mfhs.se/allman-kurs-sprak",
			"scope": 50.0,
			"studyLocation": "Mellansel",
			"subjectCode": "10",
			"languageOfInstruction": "swe",
			"start": "2024-01-08",
			"end": "2024-06-07",
			"information": "En introduktionskurs för dig som söker asyl i Sverige där du får lära dig svenska och få en ökad förståelse för det svenska samhället.&nbsp;Vi vänder oss till dig som bor i Örnsköldsviks kommun."
		},
		{
			"id": 2053,
			"code": "",
			"name": "ALLMÄN KURS GYMN",
			"provider": "Mellansels folkhögskola",
			"providerUrl": "http://www.mfhs.se/",
			"level": "folkhögskola",
			"url": "https://www.mfhs.se/allmankurs",
			"scope": 100.0,
			"studyLocation": "Mellansel",
			"subjectCode": "770",
			"category": "Förberedande utbildningar",
			"subcategory": "Utbildningar för dig med funktionsnedsättning",
			"languageOfInstruction": "swe",
			"start": "2024-01-08",
			"end": "2024-06-07",
			"information": "På vår allmänna kurs kan du läsa behörighetsgivande ämnen i små undervisningsgrupper. Vi lägger stor vikt på tydlig struktur och fasta rutiner."
		}
	],
	"_meta": {
		"page": 0,
		"limit": 5,
		"count": 5,
		"totalRecords": 159,
		"totalPages": 32
	}
}