{
	"courses": [
		{
			"id": 792,
			"code": "LATLAT02",
			"name": "Latin språk och kultur 2",
			"provider": "Sundsvalls Kommun",
			"providerUrl": "http://sundsvall.se/vuxenutbildning",
			"level": "gymnasial vuxenutbildning",
			"url": "https://sundsvall.alvis.se/hittakurser/kurs/68198",
			"credits": 100.0,
			"scope": 100.0,
			"studyLocation": "Sundsvall",
			"subjectCode": "LATLAT02",
			"category": "Språk",
			"subcategory": "Klassiska språk",
			"start": "2023-10-16",
			"end": "2023-11-17",
			"earliestApplication": "2023-04-01",
			"latestApplication": "2023-09-17",
			"information": "<![CDATA[ <p><a href=https://sundsvall.se/utbildning-och-forskola/vuxenutbildning/gymnasial--niva/studieformer-och-schema target=_blank>Läs&nbsp;om våra studieformer</a></p><p><br /><a href=https://www.csn.se/ target=_blank>Läs om studiemedel på&nbsp;www.csn.se</a><br />&nbsp;<br />Ditt antagningsbesked<br />Antagningsbesked skickas via e-post cirka två veckor före kursstart.&nbsp;<a href=https://sundsvall.alvis.se/>Se ditt antagningsbesked och följ din ansökan via Mina sidor</a>.</p> ]]>",
			"studyLocationMunicipalityId": "2281",
			"visitingAddressMunicipalityId": "2281"
		},
		{
			"id": 793,
			"code": "LATLAT03",
			"name": "Latin språk och kultur 3",
			"provider": "Sundsvalls Kommun",
			"providerUrl": "http://sundsvall.se/vuxenutbildning",
			"level": "gymnasial vuxenutbildning",
			"url": "https://sundsvall.alvis.se/hittakurser/kurs/68199",
			"credits": 100.0,
			"scope": 100.0,
			"studyLocation": "Sundsvall",
			"subjectCode": "LATLAT03",
			"category": "Språk",
			"subcategory": "Klassiska språk",
			"start": "2023-10-16",
			"end": "2023-11-17",
			"earliestApplication": "2023-04-01",
			"latestApplication": "2023-09-17",
			"information": "<![CDATA[ <p><a href=https://sundsvall.se/utbildning-och-forskola/vuxenutbildning/gymnasial--niva/studieformer-och-schema target=_blank>Läs&nbsp;om våra studieformer</a></p><p><br /><a href=https://www.csn.se/ target=_blank>Läs om studiemedel på&nbsp;www.csn.se</a><br />&nbsp;<br />Ditt antagningsbesked<br />Antagningsbesked skickas via e-post cirka två veckor före kursstart.&nbsp;<a href=https://sundsvall.alvis.se/>Se ditt antagningsbesked och följ din ansökan via Mina sidor</a>.</p> ]]>",
			"studyLocationMunicipalityId": "2281",
			"visitingAddressMunicipalityId": "2281"
		},
		{
			"id": 794,
			"code": "LATLAT01",
			"name": "Latin språk och kultur 1",
			"provider": "Sundsvalls Kommun",
			"providerUrl": "http://sundsvall.se/vuxenutbildning",
			"level": "gymnasial vuxenutbildning",
			"url": "https://sundsvall.alvis.se/hittakurser/kurs/38814",
			"credits": 100.0,
			"scope": 100.0,
			"studyLocation": "Sundsvall",
			"subjectCode": "LATLAT01",
			"category": "Språk",
			"subcategory": "Klassiska språk",
			"start": "2023-10-16",
			"end": "2023-11-17",
			"earliestApplication": "2023-04-01",
			"latestApplication": "2023-09-17",
			"information": "<![CDATA[ <p><a href=https://sundsvall.se/utbildning-och-forskola/vuxenutbildning/gymnasial--niva/studieformer-och-schema target=_blank>Läs&nbsp;om våra studieformer</a></p><p><br /><a href=https://www.csn.se/ target=_blank>Läs om studiemedel på&nbsp;www.csn.se</a><br />&nbsp;<br />Ditt antagningsbesked<br />Antagningsbesked skickas via e-post cirka två veckor före kursstart.&nbsp;<a href=https://sundsvall.alvis.se/>Se ditt antagningsbesked och följ din ansökan via Mina sidor</a>.</p> ]]>",
			"studyLocationMunicipalityId": "2281",
			"visitingAddressMunicipalityId": "2281"
		},
		{
			"id": 801,
			"code": "LEDLED0",
			"name": "Ledarskap och organisation",
			"provider": "Sundsvalls Kommun",
			"providerUrl": "http://sundsvall.se/vuxenutbildning",
			"level": "gymnasial vuxenutbildning",
			"url": "https://sundsvall.alvis.se/hittakurser/kurs/38815",
			"credits": 100.0,
			"scope": 100.0,
			"studyLocation": "Sundsvall",
			"subjectCode": "LEDLED0",
			"category": "Ekonomi, marknadsföring och administration",
			"subcategory": "Management och ledarskap",
			"start": "2023-10-16",
			"end": "2023-11-17",
			"earliestApplication": "2023-04-01",
			"latestApplication": "2023-09-17",
			"information": "<![CDATA[ <p><a href=https://sundsvall.se/utbildning-och-forskola/vuxenutbildning/gymnasial--niva/studieformer-och-schema target=_blank>Läs&nbsp;om våra studieformer</a></p><p><br /><a href=https://www.csn.se/ target=_blank>Läs om studiemedel på&nbsp;www.csn.se</a><br />&nbsp;<br />Ditt antagningsbesked<br />Antagningsbesked skickas via e-post cirka två veckor före kursstart.&nbsp;<a href=https://sundsvall.alvis.se/>Se ditt antagningsbesked och följ din ansökan via Mina sidor</a>.</p> ]]>"
		},
		{
			"id": 804,
			"code": "HALKOC0",
			"name": "Kost och hälsa",
			"provider": "Sundsvalls Kommun",
			"providerUrl": "http://sundsvall.se/vuxenutbildning",
			"level": "gymnasial vuxenutbildning",
			"url": "https://sundsvall.alvis.se/hittakurser/kurs/68197",
			"credits": 100.0,
			"scope": 100.0,
			"studyLocation": "Sundsvall",
			"subjectCode": "HALKOC0",
			"category": "Medicin och vård",
			"subcategory": "Hälsa och samhälle",
			"start": "2023-10-16",
			"end": "2023-11-17",
			"earliestApplication": "2023-04-01",
			"latestApplication": "2023-09-17",
			"information": "<![CDATA[ <p><a href=https://sundsvall.se/utbildning-och-forskola/vuxenutbildning/gymnasial--niva/studieformer-och-schema target=_blank>Läs&nbsp;om våra studieformer</a></p><p><br /><a href=https://www.csn.se/ target=_blank>Läs om studiemedel på&nbsp;www.csn.se</a><br />&nbsp;<br />Ditt antagningsbesked<br />Antagningsbesked skickas via e-post cirka två veckor före kursstart.&nbsp;<a href=https://sundsvall.alvis.se/>Se ditt antagningsbesked och följ din ansökan via Mina sidor</a>.</p> ]]>"
		}
	],
	"_meta": {
		"page": 0,
		"limit": 5,
		"count": 5,
		"totalRecords": 82,
		"totalPages": 17
	}
}
